<?xml version="1.0" encoding="UTF-8" standalone="no"?>
<!-- Created with Inkscape (http://www.inkscape.org/) -->

<svg
   xmlns:dc="http://purl.org/dc/elements/1.1/"
   xmlns:cc="http://creativecommons.org/ns#"
   xmlns:rdf="http://www.w3.org/1999/02/22-rdf-syntax-ns#"
   xmlns:svg="http://www.w3.org/2000/svg"
   xmlns="http://www.w3.org/2000/svg"
   xmlns:xlink="http://www.w3.org/1999/xlink"
   xmlns:sodipodi="http://sodipodi.sourceforge.net/DTD/sodipodi-0.dtd"
   xmlns:inkscape="http://www.inkscape.org/namespaces/inkscape"
   height="48"
   id="svg11300"
   inkscape:export-filename="/home/jimmac/Desktop/wi-fi.png"
   inkscape:export-xdpi="90.000000"
   inkscape:export-ydpi="90.000000"
   inkscape:output_extension="org.inkscape.output.svg.inkscape"
   inkscape:version="0.92.3 (2405546, 2018-03-11)"
   sodipodi:docname="document-open-imagefolder.svg"
   sodipodi:version="0.32"
   style="display:inline;enable-background:new"
   version="1.0"
   width="48">
  <title
     id="title8836">Optical Drive</title>
  <metadata
     id="metadata154">
    <rdf:RDF>
      <cc:Work
         rdf:about="">
        <dc:format>image/svg+xml</dc:format>
        <dc:type
           rdf:resource="http://purl.org/dc/dcmitype/StillImage" />
        <dc:title>Optical Drive</dc:title>
        <dc:creator>
          <cc:Agent>
            <dc:title />
          </cc:Agent>
        </dc:creator>
        <dc:contributor>
          <cc:Agent>
            <dc:title />
          </cc:Agent>
        </dc:contributor>
        <dc:source />
        <cc:license
           rdf:resource="" />
        <dc:subject>
          <rdf:Bag />
        </dc:subject>
      </cc:Work>
    </rdf:RDF>
  </metadata>
  <sodipodi:namedview
     bordercolor="#666666"
     borderopacity="0.25490196"
     fill="#f57900"
     gridtolerance="12"
     guidetolerance="13"
     height="300px"
     id="base"
     inkscape:current-layer="layer2"
     inkscape:cx="21.936651"
     inkscape:cy="30.450785"
     inkscape:document-units="px"
     inkscape:grid-bbox="true"
     inkscape:guide-bbox="true"
     inkscape:pageopacity="0.0"
     inkscape:pageshadow="2"
     inkscape:showpageshadow="false"
     inkscape:snap-bbox="true"
     inkscape:snap-nodes="true"
     inkscape:window-height="935"
     inkscape:window-width="1459"
     inkscape:window-x="100"
     inkscape:window-y="25"
     inkscape:zoom="8"
     objecttolerance="7"
     pagecolor="#ffffff"
     showgrid="false"
     showguides="true"
     stroke="#ef2929"
     width="400px"
     inkscape:window-maximized="0"
     fit-margin-top="0"
     fit-margin-left="0"
     fit-margin-right="0"
     fit-margin-bottom="0">
    <inkscape:grid
       empspacing="2"
       enabled="true"
       id="grid5883"
       spacingx="0.5"
       spacingy="0.5"
       type="xygrid"
       visible="true"
       originx="-296"
       originy="-202" />
  </sodipodi:namedview>
  <defs
     id="defs3">
    <radialGradient
       inkscape:collect="always"
       xlink:href="#linearGradient3431"
       id="radialGradient3498"
       gradientUnits="userSpaceOnUse"
       gradientTransform="matrix(2.5831757,0,0,0.9436286,-13.121666,-28.19018)"
       cx="6.6730971"
       cy="-76.966545"
       fx="6.6730971"
       fy="-76.966545"
       r="15.5" />
    <radialGradient
       inkscape:collect="always"
       xlink:href="#linearGradient3493"
       id="radialGradient3496"
       gradientUnits="userSpaceOnUse"
       gradientTransform="translate(-5,1.9999994)"
       cx="22"
       cy="-96"
       fx="22"
       fy="-96"
       r="4" />
    <linearGradient
       inkscape:collect="always"
       xlink:href="#linearGradient3513"
       id="linearGradient3494"
       gradientUnits="userSpaceOnUse"
       x1="23.931919"
       y1="-104.15109"
       x2="23.931919"
       y2="-94.357811" />
    <linearGradient
       inkscape:collect="always"
       xlink:href="#linearGradient3552"
       id="linearGradient3491"
       gradientUnits="userSpaceOnUse"
       x1="33.067142"
       y1="-68.606171"
       x2="12.312527"
       y2="-115.58344" />
    <linearGradient
       inkscape:collect="always"
       xlink:href="#linearGradient3757"
       id="linearGradient3489"
       gradientUnits="userSpaceOnUse"
       gradientTransform="translate(-70)"
       x1="86.5"
       y1="27.988253"
       x2="78.9375"
       y2="35.8125" />
    <linearGradient
       inkscape:collect="always"
       xlink:href="#linearGradient3697"
       id="linearGradient3487"
       gradientUnits="userSpaceOnUse"
       x1="62.375"
       y1="-58.5"
       x2="61.5"
       y2="-64.375" />
    <linearGradient
       inkscape:collect="always"
       xlink:href="#linearGradient3705"
       id="linearGradient3485"
       gradientUnits="userSpaceOnUse"
       x1="66.375"
       y1="-61.75"
       x2="65.875"
       y2="-68.375" />
    <radialGradient
       inkscape:collect="always"
       xlink:href="#linearGradient3431"
       id="radialGradient3483"
       gradientUnits="userSpaceOnUse"
       gradientTransform="matrix(2.1388215,0,0,0.781307,29.843553,-10.683516)"
       cx="7.0863543"
       cy="-81.039185"
       fx="7.0863543"
       fy="-81.039185"
       r="15.5" />
    <linearGradient
       inkscape:collect="always"
       xlink:href="#linearGradient3405"
       id="linearGradient3481"
       gradientUnits="userSpaceOnUse"
       gradientTransform="translate(40)"
       x1="21.8125"
       y1="-73.30188"
       x2="21.8125"
       y2="-63.037922" />
    <radialGradient
       inkscape:collect="always"
       xlink:href="#linearGradient3431"
       id="radialGradient3479"
       gradientUnits="userSpaceOnUse"
       gradientTransform="matrix(2.1388215,0,0,0.781307,-10.156447,-10.683516)"
       cx="7.0863543"
       cy="-81.039185"
       fx="7.0863543"
       fy="-81.039185"
       r="15.5" />
    <linearGradient
       inkscape:collect="always"
       xlink:href="#linearGradient3389"
       id="linearGradient3477"
       gradientUnits="userSpaceOnUse"
       x1="34.9375"
       y1="-59.28125"
       x2="34.9375"
       y2="-60.439186" />
    <linearGradient
       inkscape:collect="always"
       xlink:href="#linearGradient3397"
       id="linearGradient3475"
       gradientUnits="userSpaceOnUse"
       x1="12.227922"
       y1="-53.602253"
       x2="12.227922"
       y2="-65.245789" />
    <linearGradient
       inkscape:collect="always"
       xlink:href="#linearGradient3405"
       id="linearGradient3473"
       gradientUnits="userSpaceOnUse"
       x1="21.8125"
       y1="-73.30188"
       x2="21.8125"
       y2="-63.037922" />
    <radialGradient
       inkscape:collect="always"
       xlink:href="#linearGradient3601"
       id="radialGradient3471"
       gradientUnits="userSpaceOnUse"
       cx="24.218407"
       cy="24.218407"
       fx="24.218407"
       fy="24.218407"
       r="24.218407" />
    <linearGradient
       id="linearGradient3552"
       inkscape:collect="always">
      <stop
         id="stop3554"
         offset="0"
         style="stop-color:#d3d7cf;stop-opacity:1" />
      <stop
         id="stop3556"
         offset="1"
         style="stop-color:#eeeeec;stop-opacity:1" />
    </linearGradient>
    <linearGradient
       inkscape:collect="always"
       id="linearGradient3757">
      <stop
         style="stop-color:#000000;stop-opacity:1"
         offset="0"
         id="stop3759" />
      <stop
         style="stop-color:#000000;stop-opacity:0"
         offset="1"
         id="stop3761" />
    </linearGradient>
    <linearGradient
       inkscape:collect="always"
       id="linearGradient3601">
      <stop
         style="stop-color:#000000;stop-opacity:1;"
         offset="0"
         id="stop3603" />
      <stop
         style="stop-color:#000000;stop-opacity:0;"
         offset="1"
         id="stop3605" />
    </linearGradient>
    <linearGradient
       id="linearGradient3705"
       inkscape:collect="always">
      <stop
         id="stop3707"
         offset="0"
         style="stop-color:#73d216;stop-opacity:1;" />
      <stop
         id="stop3709"
         offset="1"
         style="stop-color:#73d216;stop-opacity:0;" />
    </linearGradient>
    <linearGradient
       id="linearGradient3697"
       inkscape:collect="always">
      <stop
         id="stop3699"
         offset="0"
         style="stop-color:#4e9a06;stop-opacity:1;" />
      <stop
         id="stop3701"
         offset="1"
         style="stop-color:#4e9a06;stop-opacity:0;" />
    </linearGradient>
    <linearGradient
       id="linearGradient3513"
       inkscape:collect="always">
      <stop
         id="stop3515"
         offset="0"
         style="stop-color:#f57900;stop-opacity:1" />
      <stop
         id="stop3517"
         offset="1"
         style="stop-color:#fce94f;stop-opacity:1" />
    </linearGradient>
    <linearGradient
       id="linearGradient3493">
      <stop
         id="stop3495"
         offset="0"
         style="stop-color:#ffffff;stop-opacity:1" />
      <stop
         id="stop3503"
         offset="0.81308645"
         style="stop-color:#ffffff;stop-opacity:1;" />
      <stop
         id="stop3501"
         offset="0.84008509"
         style="stop-color:#fdf4a7;stop-opacity:1;" />
      <stop
         id="stop3497"
         offset="1"
         style="stop-color:#fce94f;stop-opacity:0;" />
    </linearGradient>
    <linearGradient
       id="linearGradient3431"
       inkscape:collect="always">
      <stop
         id="stop3433"
         offset="0"
         style="stop-color:#ffffff;stop-opacity:1;" />
      <stop
         id="stop3435"
         offset="1"
         style="stop-color:#ffffff;stop-opacity:0;" />
    </linearGradient>
    <linearGradient
       id="linearGradient3405">
      <stop
         id="stop3407"
         offset="0"
         style="stop-color:#729fcf;stop-opacity:1;" />
      <stop
         id="stop3409"
         offset="1"
         style="stop-color:#ffffff;stop-opacity:1;" />
    </linearGradient>
    <linearGradient
       id="linearGradient3397">
      <stop
         id="stop3399"
         offset="0"
         style="stop-color:#e9b96e;stop-opacity:1" />
      <stop
         id="stop3401"
         offset="1"
         style="stop-color:#653f01;stop-opacity:1" />
    </linearGradient>
    <linearGradient
       id="linearGradient3389"
       inkscape:collect="always">
      <stop
         id="stop3391"
         offset="0"
         style="stop-color:#8f5902;stop-opacity:1" />
      <stop
         id="stop3393"
         offset="1"
         style="stop-color:#8f5902;stop-opacity:0" />
    </linearGradient>
    <linearGradient
       id="linearGradient3524">
      <stop
         id="stop5270"
         offset="0"
         style="stop-color:#729fcf;stop-opacity:0;" />
      <stop
         id="stop5272"
         offset="0.85000002"
         style="stop-color:#729fcf;stop-opacity:0;" />
      <stop
         id="stop3528"
         offset="1"
         style="stop-color:#729fcf;stop-opacity:1;" />
    </linearGradient>
    <linearGradient
       id="linearGradient4457"
       inkscape:collect="always">
      <stop
         id="stop4459"
         offset="0"
         style="stop-color:#cc0000" />
      <stop
         id="stop4461"
         offset="1"
         style="stop-color:#ef2929" />
    </linearGradient>
    <radialGradient
       inkscape:collect="always"
       xlink:href="#linearGradient3524"
       id="radialGradient4169"
       gradientUnits="userSpaceOnUse"
       cx="9.375"
       cy="9.375"
       fx="9.375"
       fy="9.375"
       r="9.375" />
    <radialGradient
       inkscape:collect="always"
       xlink:href="#linearGradient3524"
       id="radialGradient4171"
       gradientUnits="userSpaceOnUse"
       cx="9.375"
       cy="9.375"
       fx="9.375"
       fy="9.375"
       r="9.375" />
    <radialGradient
       inkscape:collect="always"
       xlink:href="#linearGradient3524"
       id="radialGradient4173"
       gradientUnits="userSpaceOnUse"
       cx="9.375"
       cy="9.375"
       fx="9.375"
       fy="9.375"
       r="9.375" />
    <linearGradient
       inkscape:collect="always"
       xlink:href="#linearGradient4457"
       id="linearGradient4175"
       gradientUnits="userSpaceOnUse"
       gradientTransform="translate(-1,-1)"
       x1="28.976408"
       y1="31.069963"
       x2="29"
       y2="40.00526" />
    <linearGradient
       inkscape:collect="always"
       xlink:href="#linearGradient4457"
       id="linearGradient4180"
       gradientUnits="userSpaceOnUse"
       gradientTransform="matrix(0.750053,0,0,0.750052,49.87293,11.12351)"
       x1="28.976408"
       y1="31.069963"
       x2="29"
       y2="40.00526" />
    <linearGradient
       inkscape:collect="always"
       xlink:href="#linearGradient4457"
       id="linearGradient4231"
       gradientUnits="userSpaceOnUse"
       gradientTransform="translate(21.27148,83.06534)"
       x1="28.976408"
       y1="31.069963"
       x2="29"
       y2="40.00526" />
  </defs>
  <g
     id="layer2"
     inkscape:groupmode="layer"
     inkscape:label="small sizes"
     style="display:inline"
     transform="translate(-296,-50)">
    <g
       id="g3238"
       style="opacity:0.30632181"
       transform="translate(252.72464,363.92299)" />
    <g
       id="g3374"
       transform="translate(244.72464,459.61049)" />
    <rect
       y="107.06534"
       x="40.271484"
       height="16"
       width="16"
       id="rect1315"
       style="display:none;overflow:visible;visibility:visible;fill:#d3d7cf;fill-opacity:1;fill-rule:evenodd;stroke:none;stroke-width:1;stroke-linecap:round;stroke-linejoin:miter;stroke-miterlimit:4;stroke-dasharray:none;stroke-dashoffset:0;stroke-opacity:1;marker:none;marker-start:none;marker-mid:none;marker-end:none" />
    <rect
       y="133.06534"
       x="40.271484"
       height="22"
       width="22"
       id="rect3481"
       style="display:none;overflow:visible;visibility:visible;fill:#d3d7cf;fill-opacity:1;fill-rule:evenodd;stroke:none;stroke-width:1;stroke-linecap:round;stroke-linejoin:miter;stroke-miterlimit:4;stroke-dasharray:none;stroke-dashoffset:0;stroke-opacity:1;marker:none;marker-start:none;marker-mid:none;marker-end:none" />
    <circle
       transform="matrix(1.706666,0,0,1.706666,92.27148,162.06534)"
       id="path3584"
       style="display:none;overflow:visible;visibility:visible;fill:url(#radialGradient4169);fill-opacity:1;fill-rule:evenodd;stroke:none;stroke-width:0.60878164;stroke-linecap:round;stroke-linejoin:miter;stroke-miterlimit:4;stroke-dasharray:none;stroke-dashoffset:0;stroke-opacity:1;marker:none;marker-start:none;marker-mid:none;marker-end:none"
       cx="9.375"
       cy="9.375"
       r="9.375" />
    <circle
       transform="matrix(2.133334,0,0,2.133334,88.27148,158.06533)"
       id="path3586"
       style="display:none;overflow:visible;visibility:visible;fill:url(#radialGradient4171);fill-opacity:1;fill-rule:evenodd;stroke:none;stroke-width:0.48148614;stroke-linecap:round;stroke-linejoin:miter;stroke-miterlimit:4;stroke-dasharray:none;stroke-dashoffset:0;stroke-opacity:1;marker:none;marker-start:none;marker-mid:none;marker-end:none"
       cx="9.375"
       cy="9.375"
       r="9.375" />
    <circle
       transform="matrix(2.559999,0,0,2.559999,84.27148,154.06534)"
       id="path3588"
       style="display:none;overflow:visible;visibility:visible;fill:url(#radialGradient4173);fill-opacity:1;fill-rule:evenodd;stroke:none;stroke-width:0.39974412;stroke-linecap:round;stroke-linejoin:miter;stroke-miterlimit:4;stroke-dasharray:none;stroke-dashoffset:0;stroke-opacity:1;marker:none;marker-start:none;marker-mid:none;marker-end:none"
       cx="9.375"
       cy="9.375"
       r="9.375" />
    <g
       transform="translate(-95.72857,141.56534)"
       id="g3977"
       style="display:none">
      <ellipse
         style="display:inline;overflow:visible;visibility:visible;fill:#000000;fill-opacity:1;fill-rule:evenodd;stroke:none;stroke-width:1;stroke-linecap:round;stroke-linejoin:round;stroke-miterlimit:4;stroke-dasharray:none;stroke-dashoffset:0;stroke-opacity:1;marker:none;marker-start:none;marker-mid:none;marker-end:none"
         id="path3954"
         transform="matrix(1.142857,0,0,1.5,-11.14285,-8.25)"
         cx="55.25"
         cy="28.5"
         rx="1.75"
         ry="1" />
      <rect
         style="display:inline;overflow:visible;visibility:visible;fill:#000000;fill-opacity:1;fill-rule:evenodd;stroke:none;stroke-width:1;stroke-linecap:round;stroke-linejoin:round;stroke-miterlimit:4;stroke-dasharray:none;stroke-dashoffset:0;stroke-opacity:1;marker:none;marker-start:none;marker-mid:none;marker-end:none"
         id="rect3956"
         width="1"
         height="8.5"
         x="53"
         y="26" />
      <path
         style="fill:#000000;fill-opacity:1;fill-rule:evenodd;stroke:none;stroke-width:1px;stroke-linecap:butt;stroke-linejoin:miter;stroke-opacity:1"
         d="m 54,26 c 2,0 1.5,3 2.5,2.999999 C 54.5,29 56,27.5 54,27.5 Z"
         id="path3964"
         sodipodi:nodetypes="cccc"
         inkscape:connector-curvature="0" />
    </g>
    <g
       transform="translate(-95.72857,141.56534)"
       id="g3997"
       style="display:none">
      <ellipse
         style="display:inline;overflow:visible;visibility:visible;fill:#000000;fill-opacity:1;fill-rule:evenodd;stroke:none;stroke-width:1;stroke-linecap:round;stroke-linejoin:round;stroke-miterlimit:4;stroke-dasharray:none;stroke-dashoffset:0;stroke-opacity:1;marker:none;marker-start:none;marker-mid:none;marker-end:none"
         id="path3984"
         transform="matrix(1.142857,0,0,1.5,-2.642849,-8.25)"
         cx="55.25"
         cy="28.5"
         rx="1.75"
         ry="1" />
      <rect
         style="display:inline;overflow:visible;visibility:visible;fill:#000000;fill-opacity:1;fill-rule:evenodd;stroke:none;stroke-width:1;stroke-linecap:round;stroke-linejoin:round;stroke-miterlimit:4;stroke-dasharray:none;stroke-dashoffset:0;stroke-opacity:1;marker:none;marker-start:none;marker-mid:none;marker-end:none"
         id="rect3986"
         width="1"
         height="8.5"
         x="61.5"
         y="26" />
      <path
         style="fill:#000000;fill-opacity:1;fill-rule:evenodd;stroke:none;stroke-width:1px;stroke-linecap:butt;stroke-linejoin:miter;stroke-opacity:1"
         d="M 62.500001,26 C 64.5,26 64,28.500001 65,28.5 c -1.500001,1e-6 -0.499999,-1 -2.499999,-1 z"
         id="path3988"
         sodipodi:nodetypes="cccc"
         inkscape:connector-curvature="0" />
      <path
         style="display:inline;fill:#000000;fill-opacity:1;fill-rule:evenodd;stroke:none;stroke-width:1px;stroke-linecap:butt;stroke-linejoin:miter;stroke-opacity:1"
         d="M 62.500001,28 C 64.5,28 64,30.500001 65,30.5 c -1.500001,1e-6 -0.499999,-1 -2.499999,-1 z"
         id="path3995"
         sodipodi:nodetypes="cccc"
         inkscape:connector-curvature="0" />
    </g>
    <g
       style="display:none"
       id="g4113"
       transform="translate(-17.72852,107.06534)">
      <ellipse
         style="display:inline;overflow:visible;visibility:visible;fill:#000000;fill-opacity:1;fill-rule:evenodd;stroke:none;stroke-width:1;stroke-linecap:round;stroke-linejoin:round;stroke-miterlimit:4;stroke-dasharray:none;stroke-dashoffset:0;stroke-opacity:1;marker:none;marker-start:none;marker-mid:none;marker-end:none"
         id="path4005"
         transform="matrix(-1.142857,0,0,-1.5,56.14275,104.75)"
         cx="55.25"
         cy="28.5"
         rx="1.75"
         ry="1" />
      <rect
         style="display:inline;overflow:visible;visibility:visible;fill:#000000;fill-opacity:1;fill-rule:evenodd;stroke:none;stroke-width:1;stroke-linecap:round;stroke-linejoin:round;stroke-miterlimit:4;stroke-dasharray:none;stroke-dashoffset:0;stroke-opacity:1;marker:none;marker-start:none;marker-mid:none;marker-end:none"
         id="rect4007"
         width="1"
         height="8.5"
         x="8.0000496"
         y="-70.5"
         transform="scale(-1)" />
      <path
         style="display:inline;fill:#000000;fill-opacity:1;fill-rule:evenodd;stroke:none;stroke-width:1px;stroke-linecap:butt;stroke-linejoin:miter;stroke-opacity:1"
         d="m -8.00005,70.499999 c 2,0 1.5,-3 2.5,-2.999999 -2,-10e-7 -0.5,1.499999 -2.5,1.499999 z"
         id="path4009"
         sodipodi:nodetypes="cccc"
         inkscape:connector-curvature="0" />
    </g>
    <g
       transform="translate(-96.22852,141.56534)"
       id="g4028"
       style="display:none">
      <ellipse
         style="display:inline;overflow:visible;visibility:visible;fill:#000000;fill-opacity:1;fill-rule:evenodd;stroke:none;stroke-width:1;stroke-linecap:round;stroke-linejoin:round;stroke-miterlimit:4;stroke-dasharray:none;stroke-dashoffset:0;stroke-opacity:1;marker:none;marker-start:none;marker-mid:none;marker-end:none"
         id="path4016"
         transform="matrix(-1.142857,0,0,-1.5,142.6428,70.25)"
         cx="55.25"
         cy="28.5"
         rx="1.75"
         ry="1" />
      <rect
         style="display:inline;overflow:visible;visibility:visible;fill:#000000;fill-opacity:1;fill-rule:evenodd;stroke:none;stroke-width:1;stroke-linecap:round;stroke-linejoin:round;stroke-miterlimit:4;stroke-dasharray:none;stroke-dashoffset:0;stroke-opacity:1;marker:none;marker-start:none;marker-mid:none;marker-end:none"
         id="rect4018"
         width="1"
         height="8.5"
         x="-78.5"
         y="-36"
         transform="scale(-1)" />
      <path
         style="fill:#000000;fill-opacity:1;fill-rule:evenodd;stroke:none;stroke-width:1px;stroke-linecap:butt;stroke-linejoin:miter;stroke-opacity:1"
         d="M 78.500001,36 C 80.5,36 80,33.499999 81,33.5 c -1.500001,-10e-7 -0.499999,1 -2.499999,1 z"
         id="path4020"
         sodipodi:nodetypes="cccc"
         inkscape:connector-curvature="0" />
      <path
         style="display:inline;fill:#000000;fill-opacity:1;fill-rule:evenodd;stroke:none;stroke-width:1px;stroke-linecap:butt;stroke-linejoin:miter;stroke-opacity:1"
         d="M 78.500001,34 C 80.5,34 80,31.499999 81,31.5 c -1.500001,-1e-6 -0.499999,1 -2.499999,1 z"
         id="path4022"
         sodipodi:nodetypes="cccc"
         inkscape:connector-curvature="0" />
    </g>
    <g
       style="display:none"
       transform="translate(-16.72852,106.06534)"
       id="g4074">
      <ellipse
         style="display:inline;overflow:visible;visibility:visible;fill:#000000;fill-opacity:1;fill-rule:evenodd;stroke:none;stroke-width:1;stroke-linecap:round;stroke-linejoin:round;stroke-miterlimit:4;stroke-dasharray:none;stroke-dashoffset:0;stroke-opacity:1;marker:none;marker-start:none;marker-mid:none;marker-end:none"
         id="path4053"
         transform="matrix(1.142857,0,0,1.5,-89.14285,39.75)"
         cx="55.25"
         cy="28.5"
         rx="1.75"
         ry="1" />
      <path
         style="display:inline;overflow:visible;visibility:visible;fill:#000000;fill-opacity:1;fill-rule:evenodd;stroke:none;stroke-width:1;stroke-linecap:round;stroke-linejoin:round;stroke-miterlimit:4;stroke-dashoffset:0;stroke-opacity:1;marker:none;marker-start:none;marker-mid:none;marker-end:none"
         d="m -25,74 6,1.5 V 84 h -1 v -7 l -4,-1 v 6.5 h -1 z"
         id="rect4055"
         sodipodi:nodetypes="ccccccccc"
         inkscape:connector-curvature="0" />
      <ellipse
         style="display:inline;overflow:visible;visibility:visible;fill:#000000;fill-opacity:1;fill-rule:evenodd;stroke:none;stroke-width:1;stroke-linecap:round;stroke-linejoin:round;stroke-miterlimit:4;stroke-dasharray:none;stroke-dashoffset:0;stroke-opacity:1;marker:none;marker-start:none;marker-mid:none;marker-end:none"
         id="path4061"
         transform="matrix(1.142857,0,0,1.5,-84.14285,41.25)"
         cx="55.25"
         cy="28.5"
         rx="1.75"
         ry="1" />
    </g>
    <g
       style="display:none"
       transform="translate(-18.22852,105.06534)"
       id="g4090">
      <ellipse
         style="display:inline;overflow:visible;visibility:visible;fill:#000000;fill-opacity:1;fill-rule:evenodd;stroke:none;stroke-width:1;stroke-linecap:round;stroke-linejoin:round;stroke-miterlimit:4;stroke-dasharray:none;stroke-dashoffset:0;stroke-opacity:1;marker:none;marker-start:none;marker-mid:none;marker-end:none"
         id="path4081"
         transform="matrix(1.142857,0,0,-1.5,-74.64285,120.75)"
         cx="55.25"
         cy="28.5"
         rx="1.75"
         ry="1" />
      <path
         style="display:inline;overflow:visible;visibility:visible;fill:#000000;fill-opacity:1;fill-rule:evenodd;stroke:none;stroke-width:1;stroke-linecap:round;stroke-linejoin:round;stroke-miterlimit:4;stroke-dashoffset:0;stroke-opacity:1;marker:none;marker-start:none;marker-mid:none;marker-end:none"
         d="m -13.5,86.5 6,-1.5 v -8.5 h -1 v 7 l -4,1 V 78 h -1 z"
         id="path4083"
         sodipodi:nodetypes="ccccccccc"
         inkscape:connector-curvature="0" />
      <ellipse
         style="display:inline;overflow:visible;visibility:visible;fill:#000000;fill-opacity:1;fill-rule:evenodd;stroke:none;stroke-width:1;stroke-linecap:round;stroke-linejoin:round;stroke-miterlimit:4;stroke-dasharray:none;stroke-dashoffset:0;stroke-opacity:1;marker:none;marker-start:none;marker-mid:none;marker-end:none"
         id="path4085"
         transform="matrix(1.142857,0,0,-1.5,-69.64285,119.25)"
         cx="55.25"
         cy="28.5"
         rx="1.75"
         ry="1" />
    </g>
    <circle
       transform="translate(45.77628,186.07014)"
       id="path5560"
       style="display:none;overflow:visible;visibility:visible;fill:#5c3566;fill-opacity:1;fill-rule:evenodd;stroke:none;stroke-width:1;stroke-linecap:round;stroke-linejoin:round;stroke-miterlimit:4;stroke-dasharray:none;stroke-dashoffset:0;stroke-opacity:1;marker:none;marker-start:none;marker-mid:none;marker-end:none"
       cx="64"
       cy="37"
       r="16" />
    <circle
       transform="matrix(0.7503,0,0,0.7503,61.75708,195.30904)"
       id="path5562"
       style="display:none;overflow:visible;visibility:visible;fill:#75507b;fill-opacity:1;fill-rule:evenodd;stroke:none;stroke-width:1;stroke-linecap:round;stroke-linejoin:round;stroke-miterlimit:4;stroke-dasharray:none;stroke-dashoffset:0;stroke-opacity:1;marker:none;marker-start:none;marker-mid:none;marker-end:none"
       cx="64"
       cy="37"
       r="16" />
    <circle
       transform="matrix(0.499916,0,0,0.499916,77.78164,204.57324)"
       id="path5564"
       style="display:none;overflow:visible;visibility:visible;fill:#ad7fa8;fill-opacity:1;fill-rule:evenodd;stroke:none;stroke-width:1;stroke-linecap:round;stroke-linejoin:round;stroke-miterlimit:4;stroke-dasharray:none;stroke-dashoffset:0;stroke-opacity:1;marker:none;marker-start:none;marker-mid:none;marker-end:none"
       cx="64"
       cy="37"
       r="16" />
    <g
       style="display:none"
       transform="translate(-17.72852,106.06534)"
       id="g4489">
      <rect
         style="display:inline;overflow:visible;visibility:visible;fill:url(#linearGradient4175);fill-opacity:1;fill-rule:evenodd;stroke:#a40000;stroke-width:1;stroke-linecap:round;stroke-linejoin:miter;stroke-miterlimit:4;stroke-dasharray:none;stroke-dashoffset:0;stroke-opacity:1;marker:none;marker-start:none;marker-mid:none;marker-end:none"
         id="rect4451"
         width="12"
         height="12"
         x="26.5"
         y="27.5"
         ry="1.0852587" />
      <g
         id="g4467"
         transform="translate(-2.000047,-2.00005)">
        <rect
           transform="rotate(45)"
           ry="0"
           y="-0.29288569"
           x="44.997532"
           height="2.0000057"
           width="9.0000229"
           id="rect4463"
           style="display:inline;overflow:visible;visibility:visible;opacity:1;fill:#ffffff;fill-opacity:1;fill-rule:evenodd;stroke:none;stroke-width:1;stroke-linecap:round;stroke-linejoin:miter;stroke-miterlimit:4;stroke-dasharray:none;stroke-dashoffset:0;stroke-opacity:1;marker:none;marker-start:none;marker-mid:none;marker-end:none" />
        <rect
           transform="matrix(-0.707107,0.707107,0.707107,0.707107,0,0)"
           ry="0"
           y="48.497509"
           x="-3.7929118"
           height="2.0000057"
           width="9.0000229"
           id="rect4465"
           style="display:inline;overflow:visible;visibility:visible;opacity:1;fill:#ffffff;fill-opacity:1;fill-rule:evenodd;stroke:none;stroke-width:1;stroke-linecap:round;stroke-linejoin:miter;stroke-miterlimit:4;stroke-dasharray:none;stroke-dashoffset:0;stroke-opacity:1;marker:none;marker-start:none;marker-mid:none;marker-end:none" />
      </g>
      <rect
         ry="0"
         y="28.5"
         x="27.5"
         height="10"
         width="10"
         id="rect4479"
         style="display:inline;overflow:visible;visibility:visible;opacity:1;fill:none;fill-opacity:1;fill-rule:evenodd;stroke:#ef2929;stroke-width:1;stroke-linecap:round;stroke-linejoin:round;stroke-miterlimit:4;stroke-dasharray:none;stroke-dashoffset:0;stroke-opacity:1;marker:none;marker-start:none;marker-mid:none;marker-end:none" />
    </g>
    <rect
       style="display:none;overflow:visible;visibility:visible;fill:url(#linearGradient4231);fill-opacity:1;fill-rule:evenodd;stroke:#a40000;stroke-width:1;stroke-linecap:round;stroke-linejoin:miter;stroke-miterlimit:4;stroke-dasharray:none;stroke-dashoffset:0;stroke-opacity:1;marker:none;marker-start:none;marker-mid:none;marker-end:none"
       id="rect4506"
       width="7"
       height="7"
       x="48.771484"
       y="111.56534"
       ry="1.0852587" />
    <path
       sodipodi:nodetypes="ccccc"
       id="path4510"
       d="m 49.77148,113.56534 1,-1 4,4 -1,1 z"
       style="display:none;fill:#ffffff;fill-opacity:1;fill-rule:evenodd;stroke:none;stroke-width:1px;stroke-linecap:butt;stroke-linejoin:miter;stroke-opacity:1"
       inkscape:connector-curvature="0" />
    <path
       sodipodi:nodetypes="ccccc"
       id="path4512"
       d="m 50.77148,117.56534 -1,-1 4,-4 1,1 z"
       style="display:none;fill:#ffffff;fill-opacity:1;fill-rule:evenodd;stroke:none;stroke-width:1px;stroke-linecap:butt;stroke-linejoin:miter;stroke-opacity:1"
       inkscape:connector-curvature="0" />
    <g
       style="display:none"
       id="g5709"
       transform="translate(-17.72852,107.06534)">
      <rect
         style="display:inline;overflow:visible;visibility:visible;fill:url(#linearGradient4180);fill-opacity:1;fill-rule:evenodd;stroke:#a40000;stroke-width:1;stroke-linecap:round;stroke-linejoin:miter;stroke-miterlimit:4;stroke-dasharray:none;stroke-dashoffset:0;stroke-opacity:1;marker:none;marker-start:none;marker-mid:none;marker-end:none"
         id="rect5674"
         width="9.0006361"
         height="9.0006237"
         x="70.499382"
         y="32.499989"
         ry="0.99253845" />
      <rect
         ry="0"
         y="33.5"
         x="71.5"
         height="7"
         width="7"
         id="rect5682"
         style="display:inline;overflow:visible;visibility:visible;fill:none;fill-opacity:1;fill-rule:evenodd;stroke:#ef2929;stroke-width:1;stroke-linecap:round;stroke-linejoin:round;stroke-miterlimit:4;stroke-dasharray:none;stroke-dashoffset:0;stroke-opacity:1;marker:none;marker-start:none;marker-mid:none;marker-end:none" />
      <g
         id="g5705">
        <path
           sodipodi:nodetypes="ccccc"
           id="path5693"
           d="m 72.5,35.5 1,-1 4,4 -1,1 z"
           style="display:inline;fill:#ffffff;fill-opacity:1;fill-rule:evenodd;stroke:none;stroke-width:1px;stroke-linecap:butt;stroke-linejoin:miter;stroke-opacity:1"
           inkscape:connector-curvature="0" />
        <path
           sodipodi:nodetypes="ccccc"
           id="path5695"
           d="m 73.5,39.5 -1,-1 4,-4 1,1 z"
           style="display:inline;fill:#ffffff;fill-opacity:1;fill-rule:evenodd;stroke:none;stroke-width:1px;stroke-linecap:butt;stroke-linejoin:miter;stroke-opacity:1"
           inkscape:connector-curvature="0" />
      </g>
    </g>
    <g
       style="display:inline"
       id="g12684"
       transform="translate(296.0531,50.12088)">
      <g
         id="g3446">
        <circle
           style="opacity:0.70114938;fill:url(#radialGradient3471);fill-opacity:1;stroke:none;stroke-width:0.5;stroke-linecap:round;stroke-linejoin:miter;stroke-miterlimit:4;stroke-dasharray:none;stroke-dashoffset:0;stroke-opacity:1"
           id="path12727"
           transform="matrix(0.9489185,0.2856547,-0.2618501,0.869842,7.7138511,-2.16203)"
           cx="24.218407"
           cy="24.218407"
           r="24.218407" />
        <g
           id="g12729"
           transform="rotate(-15.31745,330.61484,-36.154729)">
          <rect
             ry="0.86008656"
             rx="0.96564269"
             y="-77.5"
             x="1.5"
             height="21.999998"
             width="38"
             id="rect12731"
             style="opacity:1;fill:#eeeeec;fill-opacity:1;stroke:#888a85;stroke-width:1.10000002;stroke-linecap:round;stroke-linejoin:round;stroke-miterlimit:4;stroke-dasharray:none;stroke-dashoffset:0;stroke-opacity:1" />
          <rect
             ry="0"
             rx="0"
             y="-76.5"
             x="2.5"
             height="20"
             width="36"
             id="rect12733"
             style="opacity:1;fill:none;fill-opacity:1;stroke:#ffffff;stroke-width:0.99999994;stroke-linecap:round;stroke-linejoin:round;stroke-miterlimit:4;stroke-dasharray:none;stroke-dashoffset:0;stroke-opacity:1" />
          <g
             id="g12735">
            <rect
               style="opacity:1;fill:url(#linearGradient3473);fill-opacity:1;stroke:#729fcf;stroke-width:0.99999988;stroke-linecap:round;stroke-linejoin:miter;stroke-miterlimit:4;stroke-dasharray:none;stroke-dashoffset:0;stroke-opacity:1"
               id="rect12737"
               width="32"
               height="16"
               x="4.5"
               y="-74.5"
               rx="0"
               ry="0" />
            <path
               style="fill:url(#linearGradient3475);fill-opacity:1;fill-rule:evenodd;stroke:url(#linearGradient3477);stroke-width:1px;stroke-linecap:butt;stroke-linejoin:miter;stroke-opacity:1"
               d="m 5,-58.5 c 1.4374991,-7.5 3.9476793,-4.798522 6.1875,-11.1875 1.313216,0.771838 1.799196,0.267024 2.8125,1.125 1.008661,1.252341 1.472316,3.231357 2,5.125 C 18.902977,-68 19.560828,-62 23.1875,-61.0625 27,-62.47312 27.5,-71 29.5,-70 c 0.817656,-0.761636 1.563694,-5.577727 2.5,-2 1,4 3.664333,8.257 4.5,12 v 1.5 z"
               id="path12739"
               sodipodi:nodetypes="cccccccccc"
               inkscape:connector-curvature="0" />
            <path
               style="opacity:0.5249042;fill:url(#radialGradient3479);fill-opacity:1;stroke:none;stroke-width:1;stroke-linecap:round;stroke-linejoin:miter;stroke-miterlimit:4;stroke-dashoffset:0;stroke-opacity:1"
               d="m 5,-74 h 31 v 7 c -16.341516,-3.066748 -26.4168185,1.720898 -31,7 z"
               id="path12741"
               sodipodi:nodetypes="ccccc"
               inkscape:connector-curvature="0" />
          </g>
        </g>
        <g
           id="g12743"
           transform="rotate(14.999998,-334.21692,-165.32609)">
          <rect
             ry="0.86008656"
             rx="0.96564269"
             y="-77.5"
             x="41.5"
             height="21.999998"
             width="38"
             id="rect12745"
             style="fill:#eeeeec;fill-opacity:1;stroke:#888a85;stroke-width:1.10000002;stroke-linecap:round;stroke-linejoin:round;stroke-miterlimit:4;stroke-dasharray:none;stroke-dashoffset:0;stroke-opacity:1" />
          <rect
             ry="0"
             rx="0"
             y="-76.5"
             x="42.5"
             height="20"
             width="36"
             id="rect12747"
             style="fill:none;fill-opacity:1;stroke:#ffffff;stroke-width:0.99999994;stroke-linecap:round;stroke-linejoin:round;stroke-miterlimit:4;stroke-dasharray:none;stroke-dashoffset:0;stroke-opacity:1" />
          <rect
             ry="0"
             rx="0"
             y="-74.5"
             x="44.5"
             height="16"
             width="32"
             id="rect12749"
             style="fill:url(#linearGradient3481);fill-opacity:1;stroke:#729fcf;stroke-width:0.99999988;stroke-linecap:round;stroke-linejoin:miter;stroke-miterlimit:4;stroke-dasharray:none;stroke-dashoffset:0;stroke-opacity:1" />
          <path
             sodipodi:nodetypes="ccccc"
             id="path12751"
             d="m 45,-74 h 31 v 7 c -16.341516,-3.066748 -26.416818,1.720898 -31,7 z"
             style="opacity:0.5249042;fill:url(#radialGradient3483);fill-opacity:1;stroke:none;stroke-width:1;stroke-linecap:round;stroke-linejoin:miter;stroke-miterlimit:4;stroke-dashoffset:0;stroke-opacity:1"
             inkscape:connector-curvature="0" />
          <path
             sodipodi:nodetypes="ccccc"
             id="path12753"
             d="m 44.5,-63.4375 c 8.111108,-2.277779 19.968464,-2.682435 32,-3 V -58.5 h -32 z"
             style="fill:url(#linearGradient3485);fill-opacity:1;stroke:url(#linearGradient3487);stroke-width:1;stroke-linecap:round;stroke-linejoin:miter;stroke-miterlimit:4;stroke-dashoffset:0;stroke-opacity:1"
             inkscape:connector-curvature="0" />
        </g>
        <path
           style="opacity:0.2;fill:url(#linearGradient3489);fill-opacity:1;stroke:none;stroke-width:0.99999994;stroke-linecap:round;stroke-linejoin:round;stroke-miterlimit:4;stroke-dasharray:none;stroke-dashoffset:0;stroke-opacity:1"
           d="m 6.5,16.46875 1.96875,18.9375 c 0.125335,1.199248 1.249416,1.961379 2.375,1.84375 l 30.34375,-3.1875 1.75,-6.5 C 43.1398,26.807506 42.63292,26.046833 41.875,25.84375 L 7.03125,16.53125 C 6.852297,16.4833 6.676447,16.453056 6.5,16.46875 Z"
           id="path12755"
           inkscape:connector-curvature="0" />
        <g
           id="g3546"
           transform="rotate(-5.9662429,1172.959,-103.78739)">
          <rect
             ry="0.86008656"
             rx="0.96564269"
             y="-107.5"
             x="1.5"
             height="21.999998"
             width="38"
             id="rect12758"
             style="opacity:1;fill:url(#linearGradient3491);fill-opacity:1;stroke:#888a85;stroke-width:1.10000002;stroke-linecap:round;stroke-linejoin:round;stroke-miterlimit:4;stroke-dasharray:none;stroke-dashoffset:0;stroke-opacity:1" />
          <rect
             ry="0"
             rx="0"
             y="-106.5"
             x="2.5"
             height="20"
             width="36"
             id="rect12760"
             style="opacity:1;fill:none;fill-opacity:1;stroke:#ffffff;stroke-width:0.99999994;stroke-linecap:round;stroke-linejoin:round;stroke-miterlimit:4;stroke-dasharray:none;stroke-dashoffset:0;stroke-opacity:1" />
          <g
             id="g12762">
            <rect
               ry="0"
               rx="0"
               y="-104.5"
               x="4.5"
               height="16"
               width="32"
               id="rect12764"
               style="opacity:1;fill:url(#linearGradient3494);fill-opacity:1;stroke:#f57900;stroke-width:0.99999988;stroke-linecap:round;stroke-linejoin:miter;stroke-miterlimit:4;stroke-dasharray:none;stroke-dashoffset:0;stroke-opacity:1" />
            <rect
               style="opacity:1;fill:url(#radialGradient3496);fill-opacity:1;stroke:none;stroke-width:1;stroke-linecap:round;stroke-linejoin:miter;stroke-miterlimit:4;stroke-dasharray:none;stroke-dashoffset:0;stroke-opacity:1"
               id="rect12766"
               width="8"
               height="8"
               x="13"
               y="-98" />
            <path
               style="fill:#000000;fill-rule:evenodd;stroke:#000000;stroke-width:1px;stroke-linecap:butt;stroke-linejoin:miter;stroke-opacity:1"
               d="m 4.5,-89 c 1.7654963,-1.895317 2.7341619,-2.121361 7.3125,-3.8125 2.517463,2.09711 5.631778,3.253296 8.5625,1.5625 3.653079,-2.406706 5.93787,0.191196 9.4375,-2.625 1.599342,0.895833 2.755113,1.854167 6.6875,2.875 v 2.5 h -32 z"
               id="path12768"
               sodipodi:nodetypes="cccccccc"
               inkscape:connector-curvature="0" />
            <path
               sodipodi:nodetypes="ccccc"
               id="path12770"
               d="m 5,-104 h 31 v 7 c -16.341516,-3.06675 -26.4168185,1.720898 -31,7 z"
               style="opacity:0.75478929;fill:url(#radialGradient3498);fill-opacity:1;stroke:none;stroke-width:1;stroke-linecap:round;stroke-linejoin:miter;stroke-miterlimit:4;stroke-dashoffset:0;stroke-opacity:1"
               inkscape:connector-curvature="0" />
          </g>
        </g>
      </g>
    </g>
  </g>
</svg>
