<?xml version="1.0" encoding="UTF-8" standalone="no"?>
<svg
   xmlns:dc="http://purl.org/dc/elements/1.1/"
   xmlns:cc="http://creativecommons.org/ns#"
   xmlns:rdf="http://www.w3.org/1999/02/22-rdf-syntax-ns#"
   xmlns:svg="http://www.w3.org/2000/svg"
   xmlns="http://www.w3.org/2000/svg"
   xmlns:xlink="http://www.w3.org/1999/xlink"
   xmlns:sodipodi="http://sodipodi.sourceforge.net/DTD/sodipodi-0.dtd"
   xmlns:inkscape="http://www.inkscape.org/namespaces/inkscape"
   height="16"
   id="svg11300"
   style="display:inline;enable-background:new"
   version="1.0"
   width="16"
   sodipodi:docname="annotation-session-new-16.svg"
   inkscape:version="0.92.3 (2405546, 2018-03-11)">
  <sodipodi:namedview
     pagecolor="#ffffff"
     bordercolor="#666666"
     borderopacity="1"
     objecttolerance="10"
     gridtolerance="10"
     guidetolerance="10"
     inkscape:pageopacity="0"
     inkscape:pageshadow="2"
     inkscape:window-width="1920"
     inkscape:window-height="1056"
     id="namedview303"
     showgrid="false"
     inkscape:zoom="6.2933333"
     inkscape:cx="-33.508526"
     inkscape:cy="18.594632"
     inkscape:window-x="1920"
     inkscape:window-y="0"
     inkscape:window-maximized="1"
     inkscape:current-layer="svg11300"
     fit-margin-top="0"
     fit-margin-left="0"
     fit-margin-right="0"
     fit-margin-bottom="0" />
  <title
     id="title8836">Optical Drive</title>
  <metadata
     id="metadata154">
    <rdf:RDF>
      <cc:Work
         rdf:about="">
        <dc:format>image/svg+xml</dc:format>
        <dc:type
           rdf:resource="http://purl.org/dc/dcmitype/StillImage" />
        <dc:title>Optical Drive</dc:title>
        <dc:creator>
          <cc:Agent>
            <dc:title />
          </cc:Agent>
        </dc:creator>
        <dc:contributor>
          <cc:Agent>
            <dc:title />
          </cc:Agent>
        </dc:contributor>
        <dc:source />
        <cc:license
           rdf:resource="" />
        <dc:subject>
          <rdf:Bag />
        </dc:subject>
      </cc:Work>
    </rdf:RDF>
  </metadata>
  <defs
     id="defs3">
    <radialGradient
       xlink:href="#linearGradient3431"
       id="radialGradient3498"
       gradientUnits="userSpaceOnUse"
       gradientTransform="matrix(2.5831757,0,0,0.9436286,-13.121666,-28.19018)"
       cx="6.6730971"
       cy="-76.966545"
       fx="6.6730971"
       fy="-76.966545"
       r="15.5" />
    <radialGradient
       xlink:href="#linearGradient3493"
       id="radialGradient3496"
       gradientUnits="userSpaceOnUse"
       gradientTransform="translate(-5,1.9999994)"
       cx="22"
       cy="-96"
       fx="22"
       fy="-96"
       r="4" />
    <linearGradient
       xlink:href="#linearGradient3513"
       id="linearGradient3494"
       gradientUnits="userSpaceOnUse"
       x1="23.931919"
       y1="-104.15109"
       x2="23.931919"
       y2="-94.357811" />
    <linearGradient
       xlink:href="#linearGradient3552"
       id="linearGradient3491"
       gradientUnits="userSpaceOnUse"
       x1="33.067142"
       y1="-68.606171"
       x2="12.312527"
       y2="-115.58344" />
    <linearGradient
       xlink:href="#linearGradient3757"
       id="linearGradient3489"
       gradientUnits="userSpaceOnUse"
       gradientTransform="translate(272.72215,49.944103)"
       x1="86.5"
       y1="27.988253"
       x2="78.9375"
       y2="35.8125" />
    <linearGradient
       xlink:href="#linearGradient3697"
       id="linearGradient3487"
       gradientUnits="userSpaceOnUse"
       x1="62.375"
       y1="-58.5"
       x2="61.5"
       y2="-64.375"
       gradientTransform="matrix(0.9974237,-3.1219922e-5,3.1276323e-5,0.99562501,260.1579,149.71092)" />
    <linearGradient
       xlink:href="#linearGradient3705"
       id="linearGradient3485"
       gradientUnits="userSpaceOnUse"
       x1="66.375"
       y1="-61.75"
       x2="65.875"
       y2="-68.375"
       gradientTransform="matrix(0.9974237,-3.1219922e-5,3.1276323e-5,0.99562501,260.1579,149.71092)" />
    <radialGradient
       xlink:href="#linearGradient3431"
       id="radialGradient3483"
       gradientUnits="userSpaceOnUse"
       gradientTransform="matrix(2.1333113,-6.677384e-5,2.443641e-5,0.77788879,289.92423,139.07321)"
       cx="7.0863543"
       cy="-81.039185"
       fx="7.0863543"
       fy="-81.039185"
       r="15.5" />
    <linearGradient
       xlink:href="#linearGradient3405"
       id="linearGradient3481"
       gradientUnits="userSpaceOnUse"
       gradientTransform="matrix(0.9974237,0,0,0.99562501,300.05014,149.71906)"
       x1="21.8125"
       y1="-73.30188"
       x2="21.8125"
       y2="-63.037922" />
    <radialGradient
       xlink:href="#linearGradient3431"
       id="radialGradient3479"
       gradientUnits="userSpaceOnUse"
       gradientTransform="matrix(2.1388215,0,0,0.781307,-10.156447,-10.683516)"
       cx="7.0863543"
       cy="-81.039185"
       fx="7.0863543"
       fy="-81.039185"
       r="15.5" />
    <linearGradient
       xlink:href="#linearGradient3389"
       id="linearGradient3477"
       gradientUnits="userSpaceOnUse"
       x1="34.9375"
       y1="-59.28125"
       x2="34.9375"
       y2="-60.439186" />
    <linearGradient
       xlink:href="#linearGradient3397"
       id="linearGradient3475"
       gradientUnits="userSpaceOnUse"
       x1="12.227922"
       y1="-53.602253"
       x2="12.227922"
       y2="-65.245789" />
    <linearGradient
       xlink:href="#linearGradient3405"
       id="linearGradient3473"
       gradientUnits="userSpaceOnUse"
       x1="21.8125"
       y1="-73.30188"
       x2="21.8125"
       y2="-63.037922" />
    <radialGradient
       xlink:href="#linearGradient3431"
       id="radialGradient7532"
       gradientUnits="userSpaceOnUse"
       gradientTransform="matrix(2.5831757,0,0,0.9436286,-13.121666,-28.19018)"
       cx="6.6730971"
       cy="-76.966545"
       fx="6.6730971"
       fy="-76.966545"
       r="15.5" />
    <radialGradient
       xlink:href="#linearGradient3493"
       id="radialGradient7530"
       gradientUnits="userSpaceOnUse"
       gradientTransform="translate(-5,1.9999994)"
       cx="22"
       cy="-96"
       fx="22"
       fy="-96"
       r="4" />
    <linearGradient
       xlink:href="#linearGradient3513"
       id="linearGradient7528"
       gradientUnits="userSpaceOnUse"
       x1="23.931919"
       y1="-104.15109"
       x2="23.931919"
       y2="-94.357811" />
    <linearGradient
       id="linearGradient3552">
      <stop
         id="stop3554"
         offset="0"
         style="stop-color:#d3d7cf;stop-opacity:1" />
      <stop
         id="stop3556"
         offset="1"
         style="stop-color:#eeeeec;stop-opacity:1" />
    </linearGradient>
    <linearGradient
       xlink:href="#linearGradient3552"
       id="linearGradient7541"
       gradientUnits="userSpaceOnUse"
       gradientTransform="matrix(0.64096729,0,0,0.642378,291.66085,236.14877)"
       x1="33.067142"
       y1="-68.606171"
       x2="12.312527"
       y2="-115.58344" />
    <linearGradient
       xlink:href="#linearGradient3757"
       id="linearGradient7544"
       gradientUnits="userSpaceOnUse"
       gradientTransform="matrix(0.6409517,0,0,0.6423936,258.71187,126.53223)"
       x1="86.5"
       y1="27.988253"
       x2="78.9375"
       y2="35.8125" />
    <radialGradient
       xlink:href="#linearGradient3431"
       id="radialGradient7310"
       gradientUnits="userSpaceOnUse"
       gradientTransform="matrix(1.0830857,-1.0123315e-4,-1.4687923e-4,0.3934807,333.45734,218.43108)"
       cx="6.6730971"
       cy="-76.966545"
       fx="6.6730971"
       fy="-76.966545"
       r="15.5" />
    <radialGradient
       xlink:href="#linearGradient3493"
       id="radialGradient7314"
       gradientUnits="userSpaceOnUse"
       gradientTransform="matrix(0.6165332,0,0,0.61752678,332.53918,250.21835)"
       cx="22"
       cy="-96"
       fx="22"
       fy="-96"
       r="4" />
    <linearGradient
       xlink:href="#linearGradient3513"
       id="linearGradient7317"
       gradientUnits="userSpaceOnUse"
       x1="23.931919"
       y1="-104.15109"
       x2="23.931919"
       y2="-94.357811"
       gradientTransform="matrix(0.4374998,0,0,0.43820489,338.66542,232.12703)" />
    <linearGradient
       id="linearGradient3757">
      <stop
         style="stop-color:#000000;stop-opacity:1"
         offset="0"
         id="stop3759" />
      <stop
         style="stop-color:#000000;stop-opacity:0"
         offset="1"
         id="stop3761" />
    </linearGradient>
    <linearGradient
       xlink:href="#linearGradient3757"
       id="linearGradient7301"
       gradientUnits="userSpaceOnUse"
       gradientTransform="matrix(0.4375152,0.04523616,-0.04588829,0.4332402,305.75047,175.03178)"
       x1="86.5"
       y1="27.988253"
       x2="78.9375"
       y2="35.8125" />
    <linearGradient
       xlink:href="#linearGradient3697"
       id="linearGradient7522"
       gradientUnits="userSpaceOnUse"
       x1="62.375"
       y1="-58.5"
       x2="61.5"
       y2="-64.375"
       gradientTransform="matrix(0.43220467,1.610144e-5,4.1703781e-4,0.43295421,287.94473,221.17696)" />
    <linearGradient
       xlink:href="#linearGradient3705"
       id="linearGradient7520"
       gradientUnits="userSpaceOnUse"
       x1="66.375"
       y1="-61.75"
       x2="65.875"
       y2="-68.375"
       gradientTransform="matrix(0.43220467,1.610144e-5,4.1703781e-4,0.43295421,287.94473,221.17696)" />
    <radialGradient
       xlink:href="#linearGradient3431"
       id="radialGradient7518"
       gradientUnits="userSpaceOnUse"
       gradientTransform="matrix(0.92440864,3.4438106e-5,3.2583456e-4,0.33827015,300.8388,216.55197)"
       cx="7.0863543"
       cy="-81.039185"
       fx="7.0863543"
       fy="-81.039185"
       r="15.5" />
    <linearGradient
       xlink:href="#linearGradient3405"
       id="linearGradient7516"
       gradientUnits="userSpaceOnUse"
       gradientTransform="matrix(0.43220467,0,0,0.43295441,305.01988,221.16634)"
       x1="21.8125"
       y1="-73.30188"
       x2="21.8125"
       y2="-63.037922" />
    <radialGradient
       xlink:href="#linearGradient3431"
       id="radialGradient7514"
       gradientUnits="userSpaceOnUse"
       gradientTransform="matrix(2.1388215,0,0,0.781307,-10.156447,-10.683516)"
       cx="7.0863543"
       cy="-81.039185"
       fx="7.0863543"
       fy="-81.039185"
       r="15.5" />
    <linearGradient
       xlink:href="#linearGradient3389"
       id="linearGradient7512"
       gradientUnits="userSpaceOnUse"
       x1="34.9375"
       y1="-59.28125"
       x2="34.9375"
       y2="-60.439186" />
    <linearGradient
       xlink:href="#linearGradient3397"
       id="linearGradient7510"
       gradientUnits="userSpaceOnUse"
       x1="12.227922"
       y1="-53.602253"
       x2="12.227922"
       y2="-65.245789" />
    <linearGradient
       xlink:href="#linearGradient3405"
       id="linearGradient7508"
       gradientUnits="userSpaceOnUse"
       x1="21.8125"
       y1="-73.30188"
       x2="21.8125"
       y2="-63.037922" />
    <linearGradient
       id="linearGradient3705">
      <stop
         id="stop3707"
         offset="0"
         style="stop-color:#73d216;stop-opacity:1;" />
      <stop
         id="stop3709"
         offset="1"
         style="stop-color:#73d216;stop-opacity:0;" />
    </linearGradient>
    <linearGradient
       id="linearGradient3697">
      <stop
         id="stop3699"
         offset="0"
         style="stop-color:#4e9a06;stop-opacity:1;" />
      <stop
         id="stop3701"
         offset="1"
         style="stop-color:#4e9a06;stop-opacity:0;" />
    </linearGradient>
    <linearGradient
       id="linearGradient3513">
      <stop
         id="stop3515"
         offset="0"
         style="stop-color:#f57900;stop-opacity:1" />
      <stop
         id="stop3517"
         offset="1"
         style="stop-color:#fce94f;stop-opacity:1" />
    </linearGradient>
    <linearGradient
       id="linearGradient3493">
      <stop
         id="stop3495"
         offset="0"
         style="stop-color:#ffffff;stop-opacity:1" />
      <stop
         id="stop3503"
         offset="0.81308645"
         style="stop-color:#ffffff;stop-opacity:1;" />
      <stop
         id="stop3501"
         offset="0.84008509"
         style="stop-color:#fdf4a7;stop-opacity:1;" />
      <stop
         id="stop3497"
         offset="1"
         style="stop-color:#fce94f;stop-opacity:0;" />
    </linearGradient>
    <linearGradient
       id="linearGradient3431">
      <stop
         id="stop3433"
         offset="0"
         style="stop-color:#ffffff;stop-opacity:1;" />
      <stop
         id="stop3435"
         offset="1"
         style="stop-color:#ffffff;stop-opacity:0;" />
    </linearGradient>
    <linearGradient
       id="linearGradient3405">
      <stop
         id="stop3407"
         offset="0"
         style="stop-color:#729fcf;stop-opacity:1;" />
      <stop
         id="stop3409"
         offset="1"
         style="stop-color:#ffffff;stop-opacity:1;" />
    </linearGradient>
    <linearGradient
       id="linearGradient3397">
      <stop
         id="stop3399"
         offset="0"
         style="stop-color:#e9b96e;stop-opacity:1" />
      <stop
         id="stop3401"
         offset="1"
         style="stop-color:#653f01;stop-opacity:1" />
    </linearGradient>
    <linearGradient
       id="linearGradient3389">
      <stop
         id="stop3391"
         offset="0"
         style="stop-color:#8f5902;stop-opacity:1" />
      <stop
         id="stop3393"
         offset="1"
         style="stop-color:#8f5902;stop-opacity:0" />
    </linearGradient>
    <linearGradient
       id="linearGradient3524">
      <stop
         id="stop5270"
         offset="0"
         style="stop-color:#729fcf;stop-opacity:0;" />
      <stop
         id="stop5272"
         offset="0.85000002"
         style="stop-color:#729fcf;stop-opacity:0;" />
      <stop
         id="stop3528"
         offset="1"
         style="stop-color:#729fcf;stop-opacity:1;" />
    </linearGradient>
    <linearGradient
       id="linearGradient4457">
      <stop
         id="stop4459"
         offset="0"
         style="stop-color:#cc0000" />
      <stop
         id="stop4461"
         offset="1"
         style="stop-color:#ef2929" />
    </linearGradient>
    <radialGradient
       xlink:href="#linearGradient3524"
       id="radialGradient4169"
       gradientUnits="userSpaceOnUse"
       cx="9.375"
       cy="9.375"
       fx="9.375"
       fy="9.375"
       r="9.375" />
    <radialGradient
       xlink:href="#linearGradient3524"
       id="radialGradient4171"
       gradientUnits="userSpaceOnUse"
       cx="9.375"
       cy="9.375"
       fx="9.375"
       fy="9.375"
       r="9.375" />
    <radialGradient
       xlink:href="#linearGradient3524"
       id="radialGradient4173"
       gradientUnits="userSpaceOnUse"
       cx="9.375"
       cy="9.375"
       fx="9.375"
       fy="9.375"
       r="9.375" />
    <linearGradient
       xlink:href="#linearGradient4457"
       id="linearGradient4175"
       gradientUnits="userSpaceOnUse"
       gradientTransform="translate(-1,-1)"
       x1="28.976408"
       y1="31.069963"
       x2="29"
       y2="40.00526" />
    <linearGradient
       xlink:href="#linearGradient4457"
       id="linearGradient4180"
       gradientUnits="userSpaceOnUse"
       gradientTransform="matrix(0.750053,0,0,0.750052,49.87293,11.12351)"
       x1="28.976408"
       y1="31.069963"
       x2="29"
       y2="40.00526" />
    <linearGradient
       xlink:href="#linearGradient4457"
       id="linearGradient4231"
       gradientUnits="userSpaceOnUse"
       gradientTransform="translate(21.27148,83.06534)"
       x1="28.976408"
       y1="31.069963"
       x2="29"
       y2="40.00526" />
    <linearGradient
       xlink:href="#linearGradient3405"
       id="linearGradient4295"
       gradientUnits="userSpaceOnUse"
       gradientTransform="matrix(0.31482,0,0,0.3153661,0.05402936,38.940462)"
       x1="21.8125"
       y1="-73.30188"
       x2="21.8125"
       y2="-63.037922" />
    <radialGradient
       xlink:href="#linearGradient3431"
       id="radialGradient4297"
       gradientUnits="userSpaceOnUse"
       gradientTransform="matrix(0.610002,3.0208129e-4,1.115775e-4,0.2207999,-2.2060849,33.954165)"
       cx="7.0863543"
       cy="-81.039185"
       fx="7.0863543"
       fy="-81.039185"
       r="15.5" />
    <linearGradient
       xlink:href="#linearGradient3705"
       id="linearGradient4299"
       gradientUnits="userSpaceOnUse"
       gradientTransform="matrix(0.31482,1.5761122e-4,1.5763785e-4,0.3153661,-12.519306,38.93418)"
       x1="66.375"
       y1="-61.75"
       x2="65.875"
       y2="-68.375" />
    <linearGradient
       xlink:href="#linearGradient3697"
       id="linearGradient4301"
       gradientUnits="userSpaceOnUse"
       gradientTransform="matrix(0.31482,1.5761122e-4,1.5763785e-4,0.3153661,-12.519306,38.93418)"
       x1="62.375"
       y1="-58.5"
       x2="61.5"
       y2="-64.375" />
    <linearGradient
       xlink:href="#linearGradient3405"
       id="linearGradient4303"
       gradientUnits="userSpaceOnUse"
       gradientTransform="matrix(0.986644,0,0,0.9999996,0.4835573,0.00296045)"
       x1="21.8125"
       y1="-73.30188"
       x2="21.8125"
       y2="-63.037922" />
    <linearGradient
       xlink:href="#linearGradient3397"
       id="linearGradient4305"
       gradientUnits="userSpaceOnUse"
       x1="12.227922"
       y1="-53.602253"
       x2="12.227922"
       y2="-65.245789" />
    <linearGradient
       xlink:href="#linearGradient3389"
       id="linearGradient4307"
       gradientUnits="userSpaceOnUse"
       x1="34.9375"
       y1="-59.28125"
       x2="34.9375"
       y2="-60.439186" />
    <radialGradient
       xlink:href="#linearGradient3431"
       id="radialGradient4309"
       gradientUnits="userSpaceOnUse"
       gradientTransform="matrix(1.9252502,3.392304e-4,1.0339257e-4,0.6827756,-6.7735354,-16.894024)"
       cx="7.0863543"
       cy="-81.039185"
       fx="7.0863543"
       fy="-81.039185"
       r="15.5" />
    <linearGradient
       xlink:href="#linearGradient3513"
       id="linearGradient4311"
       gradientUnits="userSpaceOnUse"
       gradientTransform="matrix(0.28134,0,0,0.2526013,3.2104194,32.908556)"
       x1="23.931919"
       y1="-104.15109"
       x2="23.931919"
       y2="-94.357811" />
    <radialGradient
       xlink:href="#linearGradient3493"
       id="radialGradient4313"
       gradientUnits="userSpaceOnUse"
       gradientTransform="matrix(0.3964698,0,0,0.3655725,-0.729251,44.221534)"
       cx="22"
       cy="-96"
       fx="22"
       fy="-96"
       r="4" />
    <radialGradient
       xlink:href="#linearGradient3431"
       id="radialGradient4315"
       gradientUnits="userSpaceOnUse"
       gradientTransform="matrix(0.6665143,-5.4852341e-5,-9.038722e-5,0.2132043,0.318304,24.129578)"
       cx="6.6730971"
       cy="-76.966545"
       fx="6.6730971"
       fy="-76.966545"
       r="15.5" />
    <linearGradient
       xlink:href="#linearGradient3405"
       id="linearGradient8755"
       gradientUnits="userSpaceOnUse"
       x1="21.8125"
       y1="-73.30188"
       x2="21.8125"
       y2="-63.037922" />
    <linearGradient
       xlink:href="#linearGradient3397"
       id="linearGradient8757"
       gradientUnits="userSpaceOnUse"
       x1="12.227922"
       y1="-53.602253"
       x2="12.227922"
       y2="-65.245789" />
    <linearGradient
       xlink:href="#linearGradient3389"
       id="linearGradient8759"
       gradientUnits="userSpaceOnUse"
       x1="34.9375"
       y1="-59.28125"
       x2="34.9375"
       y2="-60.439186" />
    <radialGradient
       xlink:href="#linearGradient3431"
       id="radialGradient8761"
       gradientUnits="userSpaceOnUse"
       gradientTransform="matrix(2.1388215,0,0,0.781307,-10.156447,-10.683516)"
       cx="7.0863543"
       cy="-81.039185"
       fx="7.0863543"
       fy="-81.039185"
       r="15.5" />
    <linearGradient
       xlink:href="#linearGradient3405"
       id="linearGradient8763"
       gradientUnits="userSpaceOnUse"
       gradientTransform="matrix(0.64104839,0,0,0.64229704,305.50032,191.29023)"
       x1="21.8125"
       y1="-73.30188"
       x2="21.8125"
       y2="-63.037922" />
    <radialGradient
       xlink:href="#linearGradient3431"
       id="radialGradient8765"
       gradientUnits="userSpaceOnUse"
       gradientTransform="matrix(1.3710863,-0.00220115,0.00136947,0.50182931,299.49245,183.94755)"
       cx="7.0863543"
       cy="-81.039185"
       fx="7.0863543"
       fy="-81.039185"
       r="15.5" />
    <linearGradient
       xlink:href="#linearGradient3705"
       id="linearGradient8767"
       gradientUnits="userSpaceOnUse"
       x1="66.375"
       y1="-61.75"
       x2="65.875"
       y2="-68.375"
       gradientTransform="matrix(0.64104756,-0.00102914,0.00175279,0.64229465,280.38004,190.84023)" />
    <linearGradient
       xlink:href="#linearGradient3697"
       id="linearGradient8769"
       gradientUnits="userSpaceOnUse"
       x1="62.375"
       y1="-58.5"
       x2="61.5"
       y2="-64.375"
       gradientTransform="matrix(0.64104756,-0.00102914,0.00175279,0.64229465,280.38004,190.84023)" />
    <linearGradient
       y2="33.875889"
       x2="23.731871"
       y1="4.4175272"
       x1="23.731871"
       gradientTransform="matrix(-0.36132509,0,0,0.33660657,17.140478,0.1354293)"
       gradientUnits="userSpaceOnUse"
       id="linearGradient3877"
       xlink:href="#linearGradient3846" />
    <linearGradient
       id="linearGradient3846">
      <stop
         offset="0"
         style="stop-color:#fff3cb;stop-opacity:1"
         id="stop3848" />
      <stop
         offset="0.26238"
         style="stop-color:#fdde76;stop-opacity:1"
         id="stop3850" />
      <stop
         offset="0.66093999"
         style="stop-color:#f9c440;stop-opacity:1"
         id="stop3852" />
      <stop
         offset="1"
         style="stop-color:#e48b20;stop-opacity:1"
         id="stop3854" />
    </linearGradient>
    <linearGradient
       y2="4.0044417"
       x2="35.998066"
       y1="37.038586"
       x1="35.998066"
       gradientTransform="matrix(-0.36132509,0,0,0.33660657,17.140478,0.1354293)"
       gradientUnits="userSpaceOnUse"
       id="linearGradient3879"
       xlink:href="#linearGradient3856" />
    <linearGradient
       id="linearGradient3856">
      <stop
         offset="0"
         style="stop-color:#b67926;stop-opacity:1"
         id="stop3858" />
      <stop
         offset="1"
         style="stop-color:#eab41a;stop-opacity:1"
         id="stop3860" />
    </linearGradient>
    <linearGradient
       xlink:href="#linearGradient4087-5"
       id="linearGradient3842"
       gradientUnits="userSpaceOnUse"
       gradientTransform="matrix(0,-0.39447799,-0.42344634,0,16.496307,18.346218)"
       x1="38.940514"
       y1="15.991243"
       x2="20.576487"
       y2="15.991243" />
    <linearGradient
       id="linearGradient4087-5">
      <stop
         id="stop4089-8"
         style="stop-color:#ffffff;stop-opacity:1"
         offset="0" />
      <stop
         id="stop4091-2"
         style="stop-color:#ffffff;stop-opacity:0.23529412"
         offset="0.51153916" />
      <stop
         id="stop4093-6"
         style="stop-color:#ffffff;stop-opacity:0.15686275"
         offset="0.58522105" />
      <stop
         id="stop4095-0"
         style="stop-color:#ffffff;stop-opacity:0.39215687"
         offset="1" />
    </linearGradient>
    <linearGradient
       xlink:href="#linearGradient3846"
       id="linearGradient3211"
       gradientUnits="userSpaceOnUse"
       gradientTransform="matrix(-0.54198763,0,0,0.50490985,23.710649,9.2030824)"
       x1="23.731871"
       y1="4.4175272"
       x2="23.731871"
       y2="33.455616" />
    <linearGradient
       xlink:href="#linearGradient3856"
       id="linearGradient3213"
       gradientUnits="userSpaceOnUse"
       gradientTransform="matrix(-0.54198763,0,0,0.50490985,23.710649,9.2030824)"
       x1="35.998066"
       y1="37.038586"
       x2="35.998066"
       y2="4.0044417" />
    <linearGradient
       xlink:href="#linearGradient4087-5"
       id="linearGradient3208"
       gradientUnits="userSpaceOnUse"
       gradientTransform="matrix(0,-0.59171698,-0.63516951,0,22.744393,36.519266)"
       x1="38.940514"
       y1="15.991243"
       x2="20.576487"
       y2="15.991243" />
    <linearGradient
       gradientTransform="matrix(-0.72265023,0,0,0.67321315,33.280548,0.2708586)"
       gradientUnits="userSpaceOnUse"
       xlink:href="#linearGradient4346"
       id="linearGradient3895"
       y2="38.579693"
       x2="23.731871"
       y1="4.4175272"
       x1="23.731871" />
    <linearGradient
       id="linearGradient4346">
      <stop
         id="stop4348"
         style="stop-color:#fff3cb;stop-opacity:1"
         offset="0" />
      <stop
         id="stop4350"
         style="stop-color:#fdde76;stop-opacity:1"
         offset="0.26238" />
      <stop
         id="stop4352"
         style="stop-color:#f9c440;stop-opacity:1"
         offset="0.63592637" />
      <stop
         id="stop4354"
         style="stop-color:#e48b20;stop-opacity:1"
         offset="1" />
    </linearGradient>
    <linearGradient
       gradientTransform="matrix(0,-0.78895601,-0.84689274,0,31.992206,36.692439)"
       gradientUnits="userSpaceOnUse"
       xlink:href="#linearGradient4087-5"
       id="linearGradient3855"
       y2="15.991243"
       x2="20.576487"
       y1="15.991243"
       x1="38.940514" />
    <radialGradient
       gradientTransform="matrix(0.70660609,0,0,-0.47076982,0.9827681,39.780906)"
       gradientUnits="userSpaceOnUse"
       xlink:href="#linearGradient3757"
       id="radialGradient3449"
       fy="36.421127"
       fx="24.837126"
       r="15.644737"
       cy="36.421127"
       cx="24.837126" />
    <radialGradient
       xlink:href="#linearGradient3757"
       id="radialGradient3030"
       gradientUnits="userSpaceOnUse"
       gradientTransform="matrix(1,0,0,0.536723,0,16.87306)"
       cx="24.837126"
       cy="36.421127"
       fx="24.837126"
       fy="36.421127"
       r="15.644737" />
    <linearGradient
       y2="32.613815"
       x2="23.731871"
       y1="4.4175272"
       x1="23.731871"
       gradientTransform="matrix(-1.0417199,0,0,0.96960863,49.672366,1.2469198)"
       gradientUnits="userSpaceOnUse"
       id="linearGradient3254"
       xlink:href="#linearGradient3846" />
    <linearGradient
       y2="4.0044417"
       x2="35.998066"
       y1="39.016792"
       x1="35.998066"
       gradientTransform="matrix(-1.0417199,0,0,0.96960863,49.672366,1.2469198)"
       gradientUnits="userSpaceOnUse"
       id="linearGradient3256"
       xlink:href="#linearGradient3856" />
    <linearGradient
       xlink:href="#linearGradient4087-5"
       id="linearGradient3198-5"
       gradientUnits="userSpaceOnUse"
       gradientTransform="matrix(0,-1.1363095,-1.2208188,0,47.815188,53.703806)"
       x1="38.940514"
       y1="15.991243"
       x2="20.576487"
       y2="15.991243" />
    <linearGradient
       x1="25.132275"
       y1="0.98520643"
       x2="25.132275"
       y2="47.013336"
       id="linearGradient4033-1"
       xlink:href="#linearGradient3600-4-3"
       gradientUnits="userSpaceOnUse"
       gradientTransform="matrix(0.5428581,0,0,0.41284003,328.1031,175.68792)" />
    <linearGradient
       id="linearGradient3600-4-3">
      <stop
         id="stop3602-7-7"
         style="stop-color:#f4f4f4;stop-opacity:1"
         offset="0" />
      <stop
         id="stop3604-6-7"
         style="stop-color:#dbdbdb;stop-opacity:1"
         offset="1" />
    </linearGradient>
    <linearGradient
       x1="23.99999"
       y1="4.3278437"
       x2="23.99999"
       y2="42.039913"
       id="linearGradient3093"
       xlink:href="#linearGradient3924-742"
       gradientUnits="userSpaceOnUse"
       gradientTransform="matrix(0.45945947,0,0,0.43243245,330.10591,176.34981)" />
    <linearGradient
       id="linearGradient3924-742">
      <stop
         id="stop3115"
         style="stop-color:#ffffff;stop-opacity:1"
         offset="0" />
      <stop
         id="stop3117"
         style="stop-color:#ffffff;stop-opacity:0.23529412"
         offset="0.01102275" />
      <stop
         id="stop3119"
         style="stop-color:#ffffff;stop-opacity:0.15686275"
         offset="0.98111719" />
      <stop
         id="stop3121"
         style="stop-color:#ffffff;stop-opacity:0.39215687"
         offset="1" />
    </linearGradient>
    <linearGradient
       x1="23.575972"
       y1="25.356892"
       x2="23.575972"
       y2="31.210939"
       id="linearGradient8639"
       xlink:href="#linearGradient3155-40"
       gradientUnits="userSpaceOnUse"
       gradientTransform="matrix(0.415777,-0.4174938,0.518983,0.5146192,-15.747227,2.6503673)"
       spreadMethod="pad" />
    <linearGradient
       id="linearGradient3155-40">
      <stop
         id="stop2541"
         style="stop-color:#181818;stop-opacity:1"
         offset="0" />
      <stop
         id="stop2543"
         style="stop-color:#dbdbdb;stop-opacity:1"
         offset="0.13482948" />
      <stop
         id="stop2545"
         style="stop-color:#a4a4a4;stop-opacity:1"
         offset="0.20224422" />
      <stop
         id="stop2547"
         style="stop-color:#ffffff;stop-opacity:1"
         offset="0.26965895" />
      <stop
         id="stop2549"
         style="stop-color:#8d8d8d;stop-opacity:1"
         offset="0.44650277" />
      <stop
         id="stop2551"
         style="stop-color:#959595;stop-opacity:1"
         offset="0.57114136" />
      <stop
         id="stop2553"
         style="stop-color:#cecece;stop-opacity:1"
         offset="0.72038066" />
      <stop
         id="stop2555"
         style="stop-color:#181818;stop-opacity:1"
         offset="1" />
    </linearGradient>
    <linearGradient
       x1="30.037716"
       y1="24.989594"
       x2="30.037716"
       y2="30.000141"
       id="linearGradient8641"
       xlink:href="#linearGradient3240-279"
       gradientUnits="userSpaceOnUse"
       gradientTransform="matrix(0.4040235,-0.4056919,0.6073752,0.6022679,-17.867764,0.6930272)" />
    <linearGradient
       id="linearGradient3240-279">
      <stop
         id="stop2559"
         style="stop-color:#565656;stop-opacity:1"
         offset="0" />
      <stop
         id="stop2561"
         style="stop-color:#9a9a9a;stop-opacity:1"
         offset="0.5" />
      <stop
         id="stop2563"
         style="stop-color:#545454;stop-opacity:1"
         offset="1" />
    </linearGradient>
    <linearGradient
       x1="30.037716"
       y1="24.989594"
       x2="30.037716"
       y2="30.000141"
       id="linearGradient8643"
       xlink:href="#linearGradient3223-789"
       gradientUnits="userSpaceOnUse"
       gradientTransform="matrix(0.4040235,-0.4056919,0.6073752,0.6022679,-17.983472,0.8092126)" />
    <linearGradient
       id="linearGradient3223-789">
      <stop
         id="stop2567"
         style="stop-color:#b1b1b1;stop-opacity:1"
         offset="0" />
      <stop
         id="stop2569"
         style="stop-color:#ffffff;stop-opacity:1"
         offset="0.5" />
      <stop
         id="stop2571"
         style="stop-color:#8f8f8f;stop-opacity:1"
         offset="1" />
    </linearGradient>
    <linearGradient
       x1="30.037716"
       y1="24.989594"
       x2="30.037716"
       y2="30.000141"
       id="linearGradient8645"
       xlink:href="#linearGradient3240-279"
       gradientUnits="userSpaceOnUse"
       gradientTransform="matrix(0.4040235,-0.4056919,0.6073752,0.6022679,-17.465684,0.2892868)" />
    <linearGradient
       x1="30.037716"
       y1="24.989594"
       x2="30.037716"
       y2="30.000141"
       id="linearGradient8647"
       xlink:href="#linearGradient3223-789"
       gradientUnits="userSpaceOnUse"
       gradientTransform="matrix(0.4040235,-0.4056919,0.6073752,0.6022679,-17.581392,0.4054707)" />
    <linearGradient
       x1="30.037716"
       y1="24.989594"
       x2="30.037716"
       y2="30.000141"
       id="linearGradient8649"
       xlink:href="#linearGradient3240-279"
       gradientUnits="userSpaceOnUse"
       gradientTransform="matrix(0.4040235,-0.4056919,0.6073752,0.6022679,-17.061661,-0.1164056)" />
    <linearGradient
       x1="30.037716"
       y1="24.989594"
       x2="30.037716"
       y2="30.000141"
       id="linearGradient8651"
       xlink:href="#linearGradient3223-789"
       gradientUnits="userSpaceOnUse"
       gradientTransform="matrix(0.4040235,-0.4056919,0.6073752,0.6022679,-17.177369,-2.1969969e-4)" />
    <linearGradient
       x1="9"
       y1="29.056757"
       x2="9"
       y2="26.02973"
       id="linearGradient8653"
       xlink:href="#linearGradient3290-678"
       gradientUnits="userSpaceOnUse"
       gradientTransform="matrix(0.4040235,-0.4056919,0.6073752,0.602268,-17.636692,0.462492)" />
    <linearGradient
       id="linearGradient3290-678">
      <stop
         id="stop2607"
         style="stop-color:#ece5a5;stop-opacity:1"
         offset="0" />
      <stop
         id="stop2609"
         style="stop-color:#fcfbf2;stop-opacity:1"
         offset="1" />
    </linearGradient>
    <linearGradient
       x1="5.5178981"
       y1="37.371799"
       x2="9.5220556"
       y2="41.391716"
       id="linearGradient8655"
       xlink:href="#linearGradient3191-577"
       gradientUnits="userSpaceOnUse"
       gradientTransform="matrix(0.3763801,0.03615261,0.03669995,0.374874,-2.2182805,-1.1331002)" />
    <linearGradient
       id="linearGradient3191-577">
      <stop
         id="stop2613"
         style="stop-color:#dbce48;stop-opacity:1"
         offset="0" />
      <stop
         id="stop2615"
         style="stop-color:#c5b625;stop-opacity:1"
         offset="1" />
    </linearGradient>
    <radialGradient
       cx="4.9929786"
       cy="43.5"
       r="2.5"
       fx="4.9929786"
       fy="43.5"
       id="radialGradient3082-993"
       xlink:href="#linearGradient3688-166-749-49"
       gradientUnits="userSpaceOnUse"
       gradientTransform="matrix(2.003784,0,0,1.4,27.98813,-17.4)" />
    <linearGradient
       id="linearGradient3688-166-749-49">
      <stop
         id="stop3079"
         style="stop-color:#181818;stop-opacity:1"
         offset="0" />
      <stop
         id="stop3081"
         style="stop-color:#181818;stop-opacity:0"
         offset="1" />
    </linearGradient>
    <radialGradient
       cx="4.9929786"
       cy="43.5"
       r="2.5"
       fx="4.9929786"
       fy="43.5"
       id="radialGradient3084-992"
       xlink:href="#linearGradient3688-166-749-49"
       gradientUnits="userSpaceOnUse"
       gradientTransform="matrix(2.003784,0,0,1.4,-20.01187,-104.4)" />
    <linearGradient
       x1="25.058096"
       y1="47.027729"
       x2="25.058096"
       y2="39.999443"
       id="linearGradient3086-631"
       xlink:href="#linearGradient3702-501-757-979"
       gradientUnits="userSpaceOnUse" />
    <linearGradient
       id="linearGradient3702-501-757-979">
      <stop
         id="stop3091"
         style="stop-color:#181818;stop-opacity:0"
         offset="0" />
      <stop
         id="stop3093"
         style="stop-color:#181818;stop-opacity:1"
         offset="0.5" />
      <stop
         id="stop3095"
         style="stop-color:#181818;stop-opacity:0"
         offset="1" />
    </linearGradient>
    <linearGradient
       x1="25.132275"
       y1="0.98520643"
       x2="25.132275"
       y2="47.013336"
       id="linearGradient4033-1-3"
       xlink:href="#linearGradient3600-4-3"
       gradientUnits="userSpaceOnUse"
       gradientTransform="matrix(0.5428581,0,0,0.41284003,-1.028595,1.4584939)" />
    <linearGradient
       x1="23.99999"
       y1="4.3278437"
       x2="23.99999"
       y2="42.039913"
       id="linearGradient3093-5"
       xlink:href="#linearGradient3924-742"
       gradientUnits="userSpaceOnUse"
       gradientTransform="matrix(0.45945947,0,0,0.43243245,0.9742203,2.120381)" />
    <radialGradient
       gradientTransform="matrix(0,0.38528829,-0.41958841,0,32.389496,-16.793007)"
       gradientUnits="userSpaceOnUse"
       xlink:href="#linearGradient3242-7-3-8-0-4-58-06"
       id="radialGradient3259"
       fy="48.605404"
       fx="64.575233"
       r="31.000002"
       cy="48.605404"
       cx="64.575233" />
    <linearGradient
       id="linearGradient3242-7-3-8-0-4-58-06">
      <stop
         offset="0"
         style="stop-color:#cdf87e;stop-opacity:1"
         id="stop3244-5-8-5-6-4-3-8" />
      <stop
         offset="0.26238"
         style="stop-color:#a2e34f;stop-opacity:1"
         id="stop3246-9-5-1-5-3-0-7" />
      <stop
         offset="0.66093999"
         style="stop-color:#68b723;stop-opacity:1"
         id="stop3248-7-2-0-7-5-35-9" />
      <stop
         offset="1"
         style="stop-color:#1d7e0d;stop-opacity:1"
         id="stop3250-8-2-8-5-6-40-4" />
    </linearGradient>
    <radialGradient
       gradientTransform="matrix(0,0.52544994,-0.5716256,0,46.193389,-21.123812)"
       gradientUnits="userSpaceOnUse"
       xlink:href="#linearGradient3242-7-3-8-0-4-58-06"
       id="radialGradient3900-3"
       fy="48.216358"
       fx="65.297462"
       r="31.000002"
       cy="48.216358"
       cx="65.297462" />
    <linearGradient
       gradientTransform="matrix(0.2817955,0,0,0.2800956,12.196562,12.014885)"
       gradientUnits="userSpaceOnUse"
       xlink:href="#linearGradient4154"
       id="linearGradient3030"
       y2="35.62291"
       x2="24.138529"
       y1="10.631441"
       x1="24.138529" />
    <linearGradient
       id="linearGradient4154">
      <stop
         offset="0"
         style="stop-color:#ffffff;stop-opacity:1"
         id="stop4156" />
      <stop
         offset="0.00000002"
         style="stop-color:#ffffff;stop-opacity:0.23529412"
         id="stop4158" />
      <stop
         offset="1"
         style="stop-color:#ffffff;stop-opacity:0.15686275"
         id="stop4160" />
      <stop
         offset="1"
         style="stop-color:#ffffff;stop-opacity:0.39215687"
         id="stop4162" />
    </linearGradient>
    <linearGradient
       gradientTransform="matrix(0.2817955,0,0,0.2800956,12.178741,12.02218)"
       gradientUnits="userSpaceOnUse"
       xlink:href="#linearGradient4333"
       id="linearGradient3030-1"
       y2="24.912279"
       x2="24.138529"
       y1="21.34207"
       x1="24.138529" />
    <linearGradient
       id="linearGradient4333">
      <stop
         id="stop4335"
         style="stop-color:#ffffff;stop-opacity:1"
         offset="0" />
      <stop
         id="stop4337"
         style="stop-color:#ffffff;stop-opacity:0.23529412"
         offset="0.00000019" />
      <stop
         id="stop4339"
         style="stop-color:#ffffff;stop-opacity:0.15686275"
         offset="1" />
      <stop
         id="stop4341"
         style="stop-color:#ffffff;stop-opacity:0.39215687"
         offset="1" />
    </linearGradient>
    <radialGradient
       gradientTransform="matrix(0,0.68597915,-0.7462606,0,60.288383,-27.737493)"
       gradientUnits="userSpaceOnUse"
       xlink:href="#linearGradient3242-7-3-8-0-4-58-06"
       id="radialGradient3343"
       fy="48.709068"
       fx="65.325226"
       r="31.000002"
       cy="48.709068"
       cx="65.325226" />
    <linearGradient
       gradientTransform="matrix(0.42269325,0,0,0.38513145,14.544843,15.082967)"
       gradientUnits="userSpaceOnUse"
       xlink:href="#linearGradient4154-1"
       id="linearGradient3030-6"
       y2="36.135799"
       x2="24.138529"
       y1="10.170639"
       x1="24.138529" />
    <linearGradient
       id="linearGradient4154-1">
      <stop
         offset="0"
         style="stop-color:#ffffff;stop-opacity:1"
         id="stop4156-0" />
      <stop
         offset="0"
         style="stop-color:#ffffff;stop-opacity:0.23529412"
         id="stop4158-6" />
      <stop
         offset="1"
         style="stop-color:#ffffff;stop-opacity:0.15686275"
         id="stop4160-3" />
      <stop
         offset="1"
         style="stop-color:#ffffff;stop-opacity:0.39215687"
         id="stop4162-2" />
    </linearGradient>
    <linearGradient
       gradientTransform="matrix(0.38833389,0,0,0.41842122,15.301011,14.318351)"
       gradientUnits="userSpaceOnUse"
       xlink:href="#linearGradient4333-6"
       id="linearGradient3030-1-0"
       y2="25.52846"
       x2="24.138529"
       y1="20.748587"
       x1="24.138529" />
    <linearGradient
       id="linearGradient4333-6">
      <stop
         id="stop4335-1"
         style="stop-color:#ffffff;stop-opacity:1"
         offset="0" />
      <stop
         id="stop4337-5"
         style="stop-color:#ffffff;stop-opacity:0.23529412"
         offset="0.00000003" />
      <stop
         id="stop4339-5"
         style="stop-color:#ffffff;stop-opacity:0.15686275"
         offset="1" />
      <stop
         id="stop4341-4"
         style="stop-color:#ffffff;stop-opacity:0.39215687"
         offset="1" />
    </linearGradient>
    <radialGradient
       gradientTransform="matrix(0,0.95936489,-1.0436697,0,87.757589,-35.865792)"
       gradientUnits="userSpaceOnUse"
       xlink:href="#linearGradient3242-7-3-8-0-4-58-06"
       id="radialGradient3343-5"
       fy="48.744953"
       fx="65.59787"
       r="31.000002"
       cy="48.744953"
       cx="65.59787" />
    <linearGradient
       gradientTransform="matrix(0.70448868,0,0,0.59520312,21.241407,23.219131)"
       gradientUnits="userSpaceOnUse"
       xlink:href="#linearGradient4154-1"
       id="linearGradient3030-4"
       y2="36.594009"
       x2="24.138529"
       y1="9.712431"
       x1="24.138529" />
    <linearGradient
       gradientTransform="matrix(0.60015241,0,0,0.69748032,23.556108,20.861165)"
       gradientUnits="userSpaceOnUse"
       xlink:href="#linearGradient4154-1"
       id="linearGradient3030-1-4"
       y2="26.006231"
       x2="24.138529"
       y1="20.271303"
       x1="24.138529" />
    <radialGradient
       xlink:href="#linearGradient3524"
       id="radialGradient4169-8"
       gradientUnits="userSpaceOnUse"
       cx="9.375"
       cy="9.375"
       fx="9.375"
       fy="9.375"
       r="9.375" />
    <radialGradient
       xlink:href="#linearGradient3524"
       id="radialGradient4171-4"
       gradientUnits="userSpaceOnUse"
       cx="9.375"
       cy="9.375"
       fx="9.375"
       fy="9.375"
       r="9.375" />
    <radialGradient
       xlink:href="#linearGradient3524"
       id="radialGradient4173-3"
       gradientUnits="userSpaceOnUse"
       cx="9.375"
       cy="9.375"
       fx="9.375"
       fy="9.375"
       r="9.375" />
    <radialGradient
       xlink:href="#linearGradient3431"
       id="radialGradient4297-0"
       gradientUnits="userSpaceOnUse"
       gradientTransform="matrix(0.610002,3.0208129e-4,1.115775e-4,0.2207999,-2.2060849,33.954165)"
       cx="7.0863543"
       cy="-81.039185"
       fx="7.0863543"
       fy="-81.039185"
       r="15.5" />
    <radialGradient
       xlink:href="#linearGradient3431"
       id="radialGradient7518-4"
       gradientUnits="userSpaceOnUse"
       gradientTransform="matrix(0.92440864,3.4438106e-5,3.2583456e-4,0.33827015,300.8388,216.55197)"
       cx="7.0863543"
       cy="-81.039185"
       fx="7.0863543"
       fy="-81.039185"
       r="15.5" />
    <radialGradient
       xlink:href="#linearGradient3431"
       id="radialGradient8765-9"
       gradientUnits="userSpaceOnUse"
       gradientTransform="matrix(1.3710863,-0.00220115,0.00136947,0.50182931,299.49245,183.94755)"
       cx="7.0863543"
       cy="-81.039185"
       fx="7.0863543"
       fy="-81.039185"
       r="15.5" />
    <radialGradient
       xlink:href="#linearGradient3431"
       id="radialGradient3483-5"
       gradientUnits="userSpaceOnUse"
       gradientTransform="matrix(2.1333113,-6.677384e-5,2.443641e-5,0.77788879,289.92423,139.07321)"
       cx="7.0863543"
       cy="-81.039185"
       fx="7.0863543"
       fy="-81.039185"
       r="15.5" />
    <linearGradient
       inkscape:collect="always"
       xlink:href="#linearGradient3405"
       id="linearGradient4295-5"
       gradientUnits="userSpaceOnUse"
       gradientTransform="matrix(0.31482,0,0,0.3153661,0.05402936,38.940462)"
       x1="21.8125"
       y1="-73.30188"
       x2="21.8125"
       y2="-63.037922" />
    <radialGradient
       inkscape:collect="always"
       xlink:href="#linearGradient3431"
       id="radialGradient4297-09"
       gradientUnits="userSpaceOnUse"
       gradientTransform="matrix(0.610002,3.0208129e-4,1.115775e-4,0.2207999,-2.2060849,33.954165)"
       cx="7.0863543"
       cy="-81.039185"
       fx="7.0863543"
       fy="-81.039185"
       r="15.5" />
    <radialGradient
       inkscape:collect="always"
       xlink:href="#linearGradient3431"
       id="radialGradient4309-6"
       gradientUnits="userSpaceOnUse"
       gradientTransform="matrix(1.9252502,3.392304e-4,1.0339257e-4,0.6827756,-6.7735354,-16.894024)"
       cx="7.0863543"
       cy="-81.039185"
       fx="7.0863543"
       fy="-81.039185"
       r="15.5" />
    <radialGradient
       inkscape:collect="always"
       xlink:href="#linearGradient3493"
       id="radialGradient4313-8"
       gradientUnits="userSpaceOnUse"
       gradientTransform="matrix(0.3964698,0,0,0.3655725,-0.729251,44.221534)"
       cx="22"
       cy="-96"
       fx="22"
       fy="-96"
       r="4" />
    <radialGradient
       inkscape:collect="always"
       xlink:href="#linearGradient3431"
       id="radialGradient4315-5"
       gradientUnits="userSpaceOnUse"
       gradientTransform="matrix(0.6665143,-5.4852341e-5,-9.038722e-5,0.2132043,0.318304,24.129578)"
       cx="6.6730971"
       cy="-76.966545"
       fx="6.6730971"
       fy="-76.966545"
       r="15.5" />
    <linearGradient
       inkscape:collect="always"
       xlink:href="#linearGradient3705"
       id="linearGradient2252"
       gradientUnits="userSpaceOnUse"
       gradientTransform="matrix(0.31482,1.5761122e-4,1.5763785e-4,0.3153661,-12.519306,38.93418)"
       x1="66.375"
       y1="-61.75"
       x2="65.875"
       y2="-68.375" />
    <linearGradient
       inkscape:collect="always"
       xlink:href="#linearGradient3697"
       id="linearGradient2254"
       gradientUnits="userSpaceOnUse"
       gradientTransform="matrix(0.31482,1.5761122e-4,1.5763785e-4,0.3153661,-12.519306,38.93418)"
       x1="62.375"
       y1="-58.5"
       x2="61.5"
       y2="-64.375" />
    <linearGradient
       inkscape:collect="always"
       xlink:href="#linearGradient3405"
       id="linearGradient2256"
       gradientUnits="userSpaceOnUse"
       gradientTransform="matrix(0.986644,0,0,0.9999996,0.4835573,0.00296045)"
       x1="21.8125"
       y1="-73.30188"
       x2="21.8125"
       y2="-63.037922" />
    <linearGradient
       inkscape:collect="always"
       xlink:href="#linearGradient3397"
       id="linearGradient2258"
       gradientUnits="userSpaceOnUse"
       x1="12.227922"
       y1="-53.602253"
       x2="12.227922"
       y2="-65.245789" />
    <linearGradient
       inkscape:collect="always"
       xlink:href="#linearGradient3389"
       id="linearGradient2260"
       gradientUnits="userSpaceOnUse"
       x1="34.9375"
       y1="-59.28125"
       x2="34.9375"
       y2="-60.439186" />
    <linearGradient
       inkscape:collect="always"
       xlink:href="#linearGradient3513"
       id="linearGradient2262"
       gradientUnits="userSpaceOnUse"
       gradientTransform="matrix(0.28134,0,0,0.2526013,3.2104194,32.908556)"
       x1="23.931919"
       y1="-104.15109"
       x2="23.931919"
       y2="-94.357811" />
    <radialGradient
       xlink:href="#linearGradient2867-449-88-871-390-598-476-591-434-148-57-177-641-289-620-227-114-444-680-744-4-1-5-6"
       id="radialGradient3795"
       cx="8"
       cy="1.1428572"
       fx="8"
       fy="1.1428572"
       r="6"
       gradientTransform="matrix(-1.6693e-7,3.3333333,-3.1666667,-1.585835e-7,355.07509,189.82871)"
       gradientUnits="userSpaceOnUse" />
    <linearGradient
       id="linearGradient2867-449-88-871-390-598-476-591-434-148-57-177-641-289-620-227-114-444-680-744-4-1-5-6">
      <stop
         id="stop5430-5-0-9-4"
         style="stop-color:#737373;stop-opacity:1"
         offset="0" />
      <stop
         id="stop5432-2-0-0-4"
         style="stop-color:#636363;stop-opacity:1"
         offset="0.26238" />
      <stop
         id="stop5434-9-6-8-5"
         style="stop-color:#4b4b4b;stop-opacity:1"
         offset="0.704952" />
      <stop
         id="stop5436-2-7-0-0"
         style="stop-color:#3f3f3f;stop-opacity:1"
         offset="1" />
    </linearGradient>
    <radialGradient
       xlink:href="#linearGradient2867-449-88-871-390-598-476-591-434-148-57-177-641-289-620-227-114-444-680-744-4-1-5-6"
       id="radialGradient3813-6"
       gradientUnits="userSpaceOnUse"
       gradientTransform="matrix(0,1.7142863,1.7418575,0,43.771221,-29.233914)"
       cx="16.202444"
       cy="-19.005346"
       fx="16.202444"
       fy="-19.005346"
       r="19.99999" />
    <radialGradient
       r="62.769119"
       fy="186.17059"
       fx="99.157013"
       cy="186.17059"
       cx="99.157013"
       gradientTransform="matrix(0.17524541,0,0,0.05575992,-1.376811,18.11895)"
       gradientUnits="userSpaceOnUse"
       id="radialGradient4048"
       xlink:href="#linearGradient3820-7-2-2" />
    <linearGradient
       id="linearGradient3820-7-2-2">
      <stop
         offset="0"
         style="stop-color:#3d3d3d;stop-opacity:1"
         id="stop3822-2-6-36" />
      <stop
         offset="0.5"
         style="stop-color:#686868;stop-opacity:0.49803922"
         id="stop3864-8-7-6" />
      <stop
         offset="1"
         style="stop-color:#686868;stop-opacity:0"
         id="stop3824-1-2-4" />
    </linearGradient>
    <linearGradient
       y2="3249.0396"
       x2="2094.8992"
       y1="3215.6887"
       x1="2094.8992"
       gradientTransform="matrix(1.1670279,0,0,0.8724045,-2432.2892,-2803.8611)"
       gradientUnits="userSpaceOnUse"
       id="linearGradient1252-6"
       xlink:href="#linearGradient4382" />
    <linearGradient
       id="linearGradient4382">
      <stop
         id="stop4384"
         style="stop-color:#64baff;stop-opacity:1"
         offset="0" />
      <stop
         id="stop4386"
         style="stop-color:#3689e6;stop-opacity:1"
         offset="1" />
    </linearGradient>
    <linearGradient
       xlink:href="#linearGradient1541"
       id="linearGradient4273-1-6-8-5-8"
       gradientUnits="userSpaceOnUse"
       gradientTransform="matrix(1.0654875,0,0,1.069132,-9.4879124,-22.213893)"
       x1="30.193512"
       y1="27.5459"
       x2="26.541086"
       y2="33.269348" />
    <linearGradient
       id="linearGradient1541">
      <stop
         id="stop1533"
         style="stop-color:#ffffff;stop-opacity:1"
         offset="0" />
      <stop
         id="stop1535"
         style="stop-color:#ffffff;stop-opacity:0.23529412"
         offset="0" />
      <stop
         id="stop1537"
         style="stop-color:#ffffff;stop-opacity:0.15686275"
         offset="0.53919154" />
      <stop
         id="stop1539"
         style="stop-color:#ffffff;stop-opacity:0.39215687"
         offset="1" />
    </linearGradient>
    <linearGradient
       y2="39.830017"
       x2="-6.3880167"
       y1="22.460865"
       x1="-6.3880167"
       gradientTransform="matrix(1.2664358,0,0,1.2666132,25.860417,-21.449227)"
       gradientUnits="userSpaceOnUse"
       id="linearGradient1218-7"
       xlink:href="#linearGradient1228" />
    <linearGradient
       id="linearGradient1228">
      <stop
         offset="0"
         style="stop-color:#ffffff;stop-opacity:1"
         id="stop1220" />
      <stop
         offset="0.49999997"
         style="stop-color:#ffffff;stop-opacity:0.23529412"
         id="stop1222" />
      <stop
         offset="0.75"
         style="stop-color:#ffffff;stop-opacity:0.15686275"
         id="stop1224" />
      <stop
         offset="1"
         style="stop-color:#ffffff;stop-opacity:0.39215687"
         id="stop1226" />
    </linearGradient>
    <linearGradient
       y2="22.672705"
       x2="-2.8502469"
       y1="39.618347"
       x1="-2.8502469"
       gradientTransform="matrix(0.8278273,0,0,0.82617108,22.461534,-7.7315328)"
       gradientUnits="userSpaceOnUse"
       id="linearGradient1218-9-9"
       xlink:href="#linearGradient1082" />
    <linearGradient
       id="linearGradient1082">
      <stop
         id="stop1074"
         style="stop-color:#ffffff;stop-opacity:1"
         offset="0" />
      <stop
         id="stop1076"
         style="stop-color:#ffffff;stop-opacity:0.23529412"
         offset="0.42857143" />
      <stop
         id="stop1078"
         style="stop-color:#ffffff;stop-opacity:0.15686275"
         offset="0.75" />
      <stop
         id="stop1080"
         style="stop-color:#ffffff;stop-opacity:0.39215687"
         offset="1" />
    </linearGradient>
    <radialGradient
       xlink:href="#linearGradient3757"
       id="radialGradient3300-8"
       gradientUnits="userSpaceOnUse"
       gradientTransform="matrix(0.3823536,7.5555777e-8,-1.8372241e-8,0.1115198,-5.9254271,36.335849)"
       cx="99.189415"
       cy="185.29727"
       fx="99.189415"
       fy="185.29727"
       r="62.769119" />
    <radialGradient
       xlink:href="#linearGradient3757"
       id="radialGradient4192-6"
       gradientUnits="userSpaceOnUse"
       gradientTransform="matrix(0.2549024,5.3967361e-8,-1.2248161e-8,0.07965545,6.7163816,44.240666)"
       cx="99.189415"
       cy="185.29727"
       fx="99.189415"
       fy="185.29727"
       r="62.769119" />
    <linearGradient
       x1="2035.2928"
       y1="3201.9197"
       x2="2035.2928"
       y2="3241.9966"
       id="linearGradient11527-6-5"
       xlink:href="#linearGradient4382"
       gradientUnits="userSpaceOnUse"
       gradientTransform="matrix(1.4179622,0,0,1.0600631,-2866.9683,-3392.2369)" />
    <linearGradient
       xlink:href="#linearGradient1541-2"
       id="linearGradient4273-1-6-8-5-8-8"
       gradientUnits="userSpaceOnUse"
       gradientTransform="matrix(1.6491499,0,0,1.6700447,-15.27267,-35.933315)"
       x1="30.298615"
       y1="27.305695"
       x2="26.434902"
       y2="33.390285" />
    <linearGradient
       id="linearGradient1541-2">
      <stop
         id="stop1533-9"
         style="stop-color:#ffffff;stop-opacity:1"
         offset="0" />
      <stop
         id="stop1535-9"
         style="stop-color:#ffffff;stop-opacity:0.23529412"
         offset="0.00094838" />
      <stop
         id="stop1537-6"
         style="stop-color:#ffffff;stop-opacity:0.15686275"
         offset="0.53919154" />
      <stop
         id="stop1539-0"
         style="stop-color:#ffffff;stop-opacity:0.39215687"
         offset="1" />
    </linearGradient>
    <linearGradient
       y2="39.523407"
       x2="-6.3880167"
       y1="22.76745"
       x1="-6.3880167"
       gradientTransform="matrix(1.926816,0,0,1.9272159,39.000785,-34.023841)"
       gradientUnits="userSpaceOnUse"
       id="linearGradient1218-7-2"
       xlink:href="#linearGradient1228" />
    <linearGradient
       y2="22.619598"
       x2="-7.4708142"
       y1="39.792725"
       x1="-7.4708142"
       gradientTransform="matrix(1.1575573,0,0,1.1564458,33.024264,-10.018131)"
       gradientUnits="userSpaceOnUse"
       id="linearGradient1218-9-9-2"
       xlink:href="#linearGradient1212" />
    <linearGradient
       id="linearGradient1212">
      <stop
         id="stop1204"
         style="stop-color:#ffffff;stop-opacity:1"
         offset="0" />
      <stop
         id="stop1206"
         style="stop-color:#ffffff;stop-opacity:0.23529412"
         offset="0.42921802" />
      <stop
         id="stop1208"
         style="stop-color:#ffffff;stop-opacity:0.15686275"
         offset="0.75" />
      <stop
         id="stop1210"
         style="stop-color:#ffffff;stop-opacity:0.39215687"
         offset="1" />
    </linearGradient>
  </defs>
  <g
     id="layer5"
     style="display:none"
     transform="translate(-302.99982,-219)">
    <rect
       style="display:inline;opacity:0.4;fill:#ffffff;fill-opacity:1;stroke:#ffffff;stroke-width:1;stroke-linecap:round;stroke-linejoin:round;stroke-miterlimit:4;stroke-dasharray:none;stroke-dashoffset:0;stroke-opacity:1;enable-background:new"
       id="rect1537"
       width="12.001775"
       height="8.0105247"
       x="305.07303"
       y="225.52266"
       rx="0.9760828"
       ry="0.97608274"
       transform="matrix(0.99999999,-1.0836171e-4,-3.2200485e-4,0.99999995,0,0)" />
    <rect
       transform="matrix(1,3.7254202e-5,9.6323724e-4,0.99999954,0,0)"
       ry="0.37237826"
       rx="0.41735527"
       y="187.61238"
       x="305.66818"
       height="9.5249958"
       width="16.423777"
       id="rect1570"
       style="display:inline;opacity:0.4;fill:#ffffff;fill-opacity:1;stroke:#ffffff;stroke-width:1.70000041;stroke-linecap:round;stroke-linejoin:round;stroke-miterlimit:4;stroke-dasharray:none;stroke-dashoffset:0;stroke-opacity:1;enable-background:new" />
    <rect
       transform="matrix(0.99999871,-0.0016054,0.00272894,0.99999628,0,0)"
       ry="0.55243105"
       rx="0.61902368"
       y="141.51221"
       x="306.46188"
       height="14.130533"
       width="24.359838"
       id="rect1584"
       style="display:inline;opacity:0.4;fill:#ffffff;fill-opacity:1;stroke:#fdfdfd;stroke-width:1.70000052;stroke-linecap:round;stroke-linejoin:round;stroke-miterlimit:4;stroke-dasharray:none;stroke-dashoffset:0;stroke-opacity:1;enable-background:new" />
    <rect
       transform="rotate(-0.00179339)"
       ry="0.85632372"
       rx="0.96315491"
       y="72.558128"
       x="301.5463"
       height="21.903748"
       width="37.9021"
       id="rect1591"
       style="display:inline;opacity:0.4;fill:#fefefe;fill-opacity:1;stroke:#fbfff5;stroke-width:1.09617639;stroke-linecap:round;stroke-linejoin:round;stroke-miterlimit:4;stroke-dasharray:none;stroke-dashoffset:0;stroke-opacity:1;enable-background:new" />
  </g>
  <g
     id="layer3"
     style="display:none"
     transform="translate(-302.99982,-219)">
    <g
       style="display:inline;enable-background:new"
       id="g1240"
       transform="translate(29.875262,-6.5407377)">
      <rect
         style="display:inline;fill:#ffffff;fill-opacity:1;stroke:#888a85;stroke-width:1.00000012;stroke-linecap:round;stroke-linejoin:round;stroke-miterlimit:4;stroke-dasharray:none;stroke-dashoffset:0;stroke-opacity:1"
         id="rect6569"
         width="11.994837"
         height="8.0105247"
         x="303.57199"
         y="219.52251"
         rx="0.96943378"
         ry="0.96943367"
         transform="matrix(0.99999999,-1.0842438e-4,-3.2181866e-4,0.99999995,0,0)" />
      <g
         transform="matrix(0.2541308,-0.00152836,0.00128078,0.2530206,304.34497,240.39414)"
         id="g3618">
        <rect
           transform="matrix(1,-8.1768806e-5,-6.7312468e-5,1,0,0)"
           style="opacity:1;fill:url(#linearGradient4303);fill-opacity:1;stroke:#729fcf;stroke-width:3.94354439;stroke-linecap:round;stroke-linejoin:miter;stroke-miterlimit:4;stroke-dasharray:none;stroke-dashoffset:0;stroke-opacity:1"
           id="rect3620"
           width="31.572609"
           height="15.999993"
           x="4.9234552"
           y="-74.497009"
           rx="0"
           ry="0" />
        <path
           style="fill:url(#linearGradient4305);fill-opacity:1;fill-rule:evenodd;stroke:url(#linearGradient4307);stroke-width:3.9435451px;stroke-linecap:butt;stroke-linejoin:miter;stroke-opacity:1"
           d="m 5,-58.5 c 1.4374991,-7.5 3.9476793,-4.798522 6.1875,-11.1875 1.313216,0.771838 1.799196,0.267024 2.8125,1.125 1.008661,1.252341 1.472316,3.231357 2,5.125 C 18.902977,-68 19.560828,-62 23.1875,-61.0625 27,-62.47312 27.5,-71 29.5,-70 c 0.817656,-0.761636 1.563694,-5.577727 2.5,-2 1,4 3.664333,8.257 4.5,12 v 1.5 z"
           id="path3622"
           inkscape:connector-curvature="0" />
        <path
           style="opacity:0.5249042;fill:url(#radialGradient4309);fill-opacity:1;stroke:none;stroke-width:1;stroke-linecap:round;stroke-linejoin:miter;stroke-miterlimit:4;stroke-dashoffset:0;stroke-opacity:1"
           d="m 6.8610913,-72.223191 27.9045067,0.0049 9.26e-4,6.117223 c -14.710145,-2.68259 -23.778749,1.499684 -27.9035801,6.112305 z"
           id="path3624"
           inkscape:connector-curvature="0" />
      </g>
    </g>
    <g
       style="display:inline;enable-background:new"
       id="g6655"
       transform="translate(346.12959,218.98832)">
      <rect
         transform="matrix(1,-1.086961e-4,-3.2101412e-4,0.9999999,0,0)"
         ry="1.0319406"
         rx="1.0319406"
         y="4.5016522"
         x="3.5408463"
         height="8.0105247"
         width="11.964852"
         id="rect3548"
         style="fill:#ffffff;fill-opacity:1;stroke:#888a85;stroke-width:1.00000012;stroke-linecap:round;stroke-linejoin:round;stroke-miterlimit:4;stroke-dasharray:none;stroke-dashoffset:0;stroke-opacity:1" />
      <g
         transform="matrix(0.8918502,0,0,1,1.5115706,0)"
         id="g6623">
        <rect
           ry="0"
           rx="0"
           y="6.5117211"
           x="4.4764481"
           height="4.0416207"
           width="9.0028801"
           id="rect3554"
           style="fill:url(#linearGradient4311);fill-opacity:1;stroke:#f57900;stroke-width:1.05889797;stroke-linecap:round;stroke-linejoin:miter;stroke-miterlimit:4;stroke-dasharray:none;stroke-dashoffset:0;stroke-opacity:1"
           transform="matrix(1,-8.4382155e-5,-4.1347225e-4,0.9999999,0,0)" />
        <rect
           style="fill:url(#radialGradient4313);fill-opacity:1;stroke:none;stroke-width:1;stroke-linecap:round;stroke-linejoin:miter;stroke-miterlimit:4;stroke-dasharray:none;stroke-dashoffset:0;stroke-opacity:1"
           id="rect3556"
           width="3.1717584"
           height="2.9245806"
           x="6.4072056"
           y="7.6642799"
           transform="matrix(1,-8.6658265e-5,-4.0261224e-4,0.9999999,0,0)" />
        <path
           style="fill:#000000;fill-rule:evenodd;stroke:#000000;stroke-width:1.05889809px;stroke-linecap:butt;stroke-linejoin:miter;stroke-opacity:1"
           d="M 4.472138,10.423257 C 4.969041,9.9315407 5.241589,9.8728775 6.529835,9.4340592 c 0.708044,0.5439601 1.584104,0.8438168 2.40881,0.4051274 1.028009,-0.6244248 1.670541,0.049454 2.655421,-0.6811946 0.449865,0.2323536 0.774929,0.4809317 1.881161,0.7456551 l -2.61e-4,0.6485369 -9.00288,7.8e-4 z"
           id="path3558"
           inkscape:connector-curvature="0" />
        <path
           id="path3560"
           d="M 5.001341,7.0006583 13,7 12.999329,8.5815861 C 8.783164,7.8890288 6.183063,8.9709681 5,10.16383 Z"
           style="opacity:0.75478929;fill:url(#radialGradient4315);fill-opacity:1;stroke:none;stroke-width:1;stroke-linecap:round;stroke-linejoin:miter;stroke-miterlimit:4;stroke-dashoffset:0;stroke-opacity:1"
           inkscape:connector-curvature="0" />
      </g>
    </g>
    <g
       style="display:inline;enable-background:new"
       id="g1289"
       transform="translate(24.8125,-6)">
      <g
         transform="matrix(0.4167956,-0.1143875,0.1141588,0.4176305,312.76105,214.9311)"
         id="g3612">
        <rect
           style="opacity:1;fill:#eeeeec;fill-opacity:1;stroke:#888a85;stroke-width:3.92991471;stroke-linecap:round;stroke-linejoin:round;stroke-miterlimit:4;stroke-dasharray:none;stroke-dashoffset:0;stroke-opacity:1"
           id="rect3614"
           width="38"
           height="21.999998"
           x="1.5"
           y="-77.5"
           rx="0.96564269"
           ry="0.86008656" />
        <rect
           style="opacity:1;fill:none;fill-opacity:1;stroke:#ffffff;stroke-width:2.31171489;stroke-linecap:round;stroke-linejoin:round;stroke-miterlimit:4;stroke-dasharray:none;stroke-dashoffset:0;stroke-opacity:1"
           id="rect3616"
           width="36"
           height="20"
           x="2.5"
           y="-76.5"
           rx="0"
           ry="0" />
        <g
           id="g6586">
          <rect
             ry="0"
             rx="0"
             y="-74.5"
             x="4.5"
             height="16"
             width="32"
             id="rect6588"
             style="opacity:1;fill:url(#linearGradient7508);fill-opacity:1;stroke:#729fcf;stroke-width:2.31171489;stroke-linecap:round;stroke-linejoin:miter;stroke-miterlimit:4;stroke-dasharray:none;stroke-dashoffset:0;stroke-opacity:1" />
          <path
             id="path6590"
             d="m 5,-58.5 c 1.4374991,-7.5 3.9476793,-4.798522 6.1875,-11.1875 1.313216,0.771838 1.799196,0.267024 2.8125,1.125 1.008661,1.252341 1.472316,3.231357 2,5.125 C 18.902977,-68 19.560828,-62 23.1875,-61.0625 27,-62.47312 27.5,-71 29.5,-70 c 0.817656,-0.761636 1.563694,-5.577727 2.5,-2 1,4 3.664333,8.257 4.5,12 v 1.5 z"
             style="fill:url(#linearGradient7510);fill-opacity:1;fill-rule:evenodd;stroke:url(#linearGradient7512);stroke-width:2.31171513px;stroke-linecap:butt;stroke-linejoin:miter;stroke-opacity:1"
             inkscape:connector-curvature="0" />
          <path
             id="path6592"
             d="m 5,-74 h 31 v 7 c -16.341516,-3.066748 -26.4168185,1.720898 -31,7 z"
             style="opacity:0.5249042;fill:url(#radialGradient7514);fill-opacity:1;stroke:none;stroke-width:1;stroke-linecap:round;stroke-linejoin:miter;stroke-miterlimit:4;stroke-dashoffset:0;stroke-opacity:1"
             inkscape:connector-curvature="0" />
        </g>
      </g>
      <rect
         style="display:inline;opacity:1;fill:none;fill-opacity:1;stroke:#ffffff;stroke-width:1.00000036;stroke-linecap:round;stroke-linejoin:round;stroke-miterlimit:4;stroke-dasharray:none;stroke-dashoffset:0;stroke-opacity:1"
         id="rect7566"
         width="15.559462"
         height="8.6590414"
         x="246.1015"
         y="256.92145"
         rx="0"
         ry="0"
         transform="matrix(0.96434207,-0.26465899,0.26367539,0.96461147,0,0)" />
    </g>
    <g
       style="display:inline;enable-background:new"
       id="g1270">
      <path
         id="path3742"
         d="m 338.46466,185.62727 -0.008,8.29355 c -2e-4,0.52523 0.45663,0.90626 0.95449,0.90622 l 13.42212,-0.008 1.06393,-2.7369 c 0.12315,-0.31794 -0.0637,-0.67043 -0.38599,-0.79269 l -14.81734,-5.61077 c -0.0761,-0.0289 -0.15164,-0.0499 -0.22956,-0.0511 z"
         style="opacity:0.2;fill:url(#linearGradient7301);fill-opacity:1;stroke:none;stroke-width:0.99999994;stroke-linecap:round;stroke-linejoin:round;stroke-miterlimit:4;stroke-dasharray:none;stroke-dashoffset:0;stroke-opacity:1"
         inkscape:connector-curvature="0" />
      <rect
         transform="matrix(1,-9.9211478e-5,-3.5170307e-4,0.99999994,0,0)"
         ry="0.4299396"
         rx="0.45731911"
         y="184.35378"
         x="338.63367"
         height="10.997351"
         width="17.996435"
         id="rect6606"
         style="fill:#ffffff;fill-opacity:1;stroke:#888a85;stroke-width:1.00000012;stroke-linecap:round;stroke-linejoin:round;stroke-miterlimit:4;stroke-dasharray:none;stroke-dashoffset:0;stroke-opacity:1" />
      <rect
         transform="matrix(1,-9.4133857e-5,-3.7063896e-4,0.99999993,0,0)"
         style="fill:url(#linearGradient7317);fill-opacity:1;stroke:#f57900;stroke-width:1.00000012;stroke-linecap:round;stroke-linejoin:miter;stroke-miterlimit:4;stroke-dasharray:none;stroke-dashoffset:0;stroke-opacity:1"
         id="rect6608"
         width="13.999993"
         height="7.0112791"
         x="340.63416"
         y="186.33463"
         rx="0"
         ry="0" />
      <rect
         transform="matrix(1,-9.4133857e-5,-3.7063897e-4,0.99999993,0,0)"
         y="188.46567"
         x="343.63678"
         height="4.9402151"
         width="4.9322658"
         id="rect6610"
         style="fill:url(#radialGradient7314);fill-opacity:1;stroke:none;stroke-width:1;stroke-linecap:round;stroke-linejoin:miter;stroke-miterlimit:4;stroke-dasharray:none;stroke-dashoffset:0;stroke-opacity:1" />
      <path
         id="path6612"
         d="m 340.56259,193.09472 c 0.77271,-0.83061 1.19654,-0.92971 3.19983,-1.67096 1.10105,0.91886 2.46338,1.42538 3.74584,0.68434 1.59861,-1.05478 2.59779,0.0835 4.12933,-1.15068 0.69957,0.3925 1.20506,0.8124 2.92532,1.25957 l -4.1e-4,1.09551 -13.99999,0.001 z"
         style="fill:#000000;fill-rule:evenodd;stroke:#000000;stroke-width:1.00000024px;stroke-linecap:butt;stroke-linejoin:miter;stroke-opacity:1"
         inkscape:connector-curvature="0" />
      <path
         style="opacity:0.75478929;fill:url(#radialGradient7310);fill-opacity:1;stroke:none;stroke-width:1;stroke-linecap:round;stroke-linejoin:miter;stroke-miterlimit:4;stroke-dashoffset:0;stroke-opacity:1"
         d="m 341.06728,186.81867 12.99782,-0.001 -10e-4,2.91891 c -6.85126,-1.27816 -11.07642,0.71862 -12.9989,2.92012 z"
         id="path6614"
         inkscape:connector-curvature="0" />
    </g>
    <g
       style="display:inline;enable-background:new"
       id="g1374"
       transform="translate(36.946329,-13.435029)">
      <g
         transform="matrix(0.6181832,-0.1696991,0.1693182,0.6195739,317.22775,181.81221)"
         id="g8707">
        <rect
           style="opacity:1;fill:#eeeeec;fill-opacity:1;stroke:#888a85;stroke-width:2.64932752;stroke-linecap:round;stroke-linejoin:round;stroke-miterlimit:4;stroke-dasharray:none;stroke-dashoffset:0;stroke-opacity:1"
           id="rect8709"
           width="38"
           height="21.999998"
           x="1.5"
           y="-77.5"
           rx="0.96564269"
           ry="0.86008656" />
        <rect
           style="opacity:1;fill:none;fill-opacity:1;stroke:#ffffff;stroke-width:1.55842805;stroke-linecap:round;stroke-linejoin:round;stroke-miterlimit:4;stroke-dasharray:none;stroke-dashoffset:0;stroke-opacity:1"
           id="rect8711"
           width="36"
           height="20"
           x="2.5"
           y="-76.5"
           rx="0"
           ry="0" />
        <g
           id="g8713">
          <rect
             ry="0"
             rx="0"
             y="-74.5"
             x="4.5"
             height="16"
             width="32"
             id="rect8715"
             style="opacity:1;fill:url(#linearGradient8755);fill-opacity:1;stroke:#729fcf;stroke-width:1.55842805;stroke-linecap:round;stroke-linejoin:miter;stroke-miterlimit:4;stroke-dasharray:none;stroke-dashoffset:0;stroke-opacity:1" />
          <path
             id="path8717"
             d="m 5,-58.5 c 1.4374991,-7.5 3.9476793,-4.798522 6.1875,-11.1875 1.313216,0.771838 1.799196,0.267024 2.8125,1.125 1.008661,1.252341 1.472316,3.231357 2,5.125 C 18.902977,-68 19.560828,-62 23.1875,-61.0625 27,-62.47312 27.5,-71 29.5,-70 c 0.817656,-0.761636 1.563694,-5.577727 2.5,-2 1,4 3.664333,8.257 4.5,12 v 1.5 z"
             style="fill:url(#linearGradient8757);fill-opacity:1;fill-rule:evenodd;stroke:url(#linearGradient8759);stroke-width:1.55842829px;stroke-linecap:butt;stroke-linejoin:miter;stroke-opacity:1"
             inkscape:connector-curvature="0" />
          <path
             id="path8719"
             d="m 5,-74 h 31 v 7 c -16.341516,-3.066748 -26.4168185,1.720898 -31,7 z"
             style="opacity:0.5249042;fill:url(#radialGradient8761);fill-opacity:1;stroke:none;stroke-width:1;stroke-linecap:round;stroke-linejoin:miter;stroke-miterlimit:4;stroke-dashoffset:0;stroke-opacity:1"
             inkscape:connector-curvature="0" />
        </g>
      </g>
      <rect
         style="display:inline;opacity:1;fill:none;fill-opacity:1;stroke:#ffffff;stroke-width:1.00000036;stroke-linecap:round;stroke-linejoin:round;stroke-miterlimit:4;stroke-dasharray:none;stroke-dashoffset:0;stroke-opacity:1"
         id="rect8721"
         width="23.077888"
         height="12.845862"
         x="259.68109"
         y="210.16727"
         rx="0"
         ry="0"
         transform="matrix(0.96432545,-0.26471952,0.26361515,0.96462794,0,0)" />
    </g>
    <g
       style="display:inline;enable-background:new"
       id="g1355"
       transform="translate(37.741825,-0.26516504)">
      <path
         id="path8735"
         d="m 307.74467,137.11165 1.26187,12.16532 c 0.0803,0.77039 0.80082,1.25998 1.52226,1.18442 l 19.44888,-2.04763 1.12166,-4.17556 c 0.12967,-0.485 -0.19522,-0.97366 -0.68101,-1.10411 l -22.33316,-5.9823 c -0.1147,-0.0308 -0.22741,-0.0502 -0.3405,-0.0402 z"
         style="opacity:0.2;fill:url(#linearGradient7544);fill-opacity:1;stroke:none;stroke-width:0.99999994;stroke-linecap:round;stroke-linejoin:round;stroke-miterlimit:4;stroke-dasharray:none;stroke-dashoffset:0;stroke-opacity:1"
         inkscape:connector-curvature="0" />
      <rect
         transform="matrix(0.99455911,-0.1041738,0.1037117,0.9946074,0,0)"
         ry="0.55250072"
         rx="0.61894536"
         y="167.09314"
         x="292.62231"
         height="14.132316"
         width="24.356756"
         id="rect8739"
         style="fill:url(#linearGradient7541);fill-opacity:1;stroke:#888a85;stroke-width:1.80000007;stroke-linecap:round;stroke-linejoin:round;stroke-miterlimit:4;stroke-dasharray:none;stroke-dashoffset:0;stroke-opacity:1" />
      <rect
         transform="matrix(0.99455911,-0.1041738,0.1037117,0.9946074,0,0)"
         ry="0"
         rx="0"
         y="167.7355"
         x="293.26328"
         height="12.847561"
         width="23.074823"
         id="rect3550"
         style="fill:none;fill-opacity:1;stroke:#ffffff;stroke-width:1;stroke-linecap:round;stroke-linejoin:round;stroke-miterlimit:4;stroke-dasharray:none;stroke-dashoffset:0;stroke-opacity:1" />
      <g
         transform="matrix(0.6374799,-0.066772,0.06662212,0.638914,314.56535,204.4919)"
         id="g3552">
        <rect
           ry="0"
           rx="0"
           y="-104.5"
           x="4.5"
           height="16"
           width="32"
           id="rect8743"
           style="opacity:1;fill:url(#linearGradient7528);fill-opacity:1;stroke:#f57900;stroke-width:1.55842805;stroke-linecap:round;stroke-linejoin:miter;stroke-miterlimit:4;stroke-dasharray:none;stroke-dashoffset:0;stroke-opacity:1" />
        <rect
           style="opacity:1;fill:url(#radialGradient7530);fill-opacity:1;stroke:none;stroke-width:1;stroke-linecap:round;stroke-linejoin:miter;stroke-miterlimit:4;stroke-dasharray:none;stroke-dashoffset:0;stroke-opacity:1"
           id="rect8745"
           width="8"
           height="8"
           x="13"
           y="-98" />
        <path
           style="fill:#000000;fill-rule:evenodd;stroke:#000000;stroke-width:1.55842829px;stroke-linecap:butt;stroke-linejoin:miter;stroke-opacity:1"
           d="m 4.5,-89 c 1.7654963,-1.895317 2.7341619,-2.121361 7.3125,-3.8125 2.517463,2.09711 5.631778,3.253296 8.5625,1.5625 3.653079,-2.406706 5.93787,0.191196 9.4375,-2.625 1.599342,0.895833 2.755113,1.854167 6.6875,2.875 v 2.5 h -32 z"
           id="path8747"
           inkscape:connector-curvature="0" />
        <path
           id="path8749"
           d="m 5,-104 h 31 v 7 c -16.341516,-3.06675 -26.4168185,1.720898 -31,7 z"
           style="opacity:0.75478929;fill:url(#radialGradient7532);fill-opacity:1;stroke:none;stroke-width:1;stroke-linecap:round;stroke-linejoin:miter;stroke-miterlimit:4;stroke-dashoffset:0;stroke-opacity:1"
           inkscape:connector-curvature="0" />
      </g>
      <rect
         transform="matrix(0.99455911,-0.1041738,0.1037117,0.9946074,0,0)"
         ry="0"
         rx="0"
         y="167.7355"
         x="293.26328"
         height="12.847561"
         width="23.074823"
         id="rect7562"
         style="display:inline;fill:none;fill-opacity:1;stroke:#ffffff;stroke-width:1;stroke-linecap:round;stroke-linejoin:round;stroke-miterlimit:4;stroke-dasharray:none;stroke-dashoffset:0;stroke-opacity:1" />
    </g>
    <g
       style="display:inline;enable-background:new"
       id="g12729"
       transform="rotate(-15.31745,596.08688,-1308.5335)">
      <rect
         ry="0.86008656"
         rx="0.96564269"
         y="-77.5"
         x="1.5"
         height="21.999998"
         width="38"
         id="rect12731"
         style="opacity:1;fill:#eeeeec;fill-opacity:1;stroke:#888a85;stroke-width:1.10000002;stroke-linecap:round;stroke-linejoin:round;stroke-miterlimit:4;stroke-dasharray:none;stroke-dashoffset:0;stroke-opacity:1" />
      <rect
         ry="0"
         rx="0"
         y="-76.5"
         x="2.5"
         height="20"
         width="36"
         id="rect12733"
         style="opacity:1;fill:none;fill-opacity:1;stroke:#ffffff;stroke-width:0.99999994;stroke-linecap:round;stroke-linejoin:round;stroke-miterlimit:4;stroke-dasharray:none;stroke-dashoffset:0;stroke-opacity:1" />
      <g
         id="g12735">
        <rect
           style="opacity:1;fill:url(#linearGradient3473);fill-opacity:1;stroke:#729fcf;stroke-width:0.99999988;stroke-linecap:round;stroke-linejoin:miter;stroke-miterlimit:4;stroke-dasharray:none;stroke-dashoffset:0;stroke-opacity:1"
           id="rect12737"
           width="32"
           height="16"
           x="4.5"
           y="-74.5"
           rx="0"
           ry="0" />
        <path
           style="fill:url(#linearGradient3475);fill-opacity:1;fill-rule:evenodd;stroke:url(#linearGradient3477);stroke-width:1px;stroke-linecap:butt;stroke-linejoin:miter;stroke-opacity:1"
           d="m 5,-58.5 c 1.4374991,-7.5 3.9476793,-4.798522 6.1875,-11.1875 1.313216,0.771838 1.799196,0.267024 2.8125,1.125 1.008661,1.252341 1.472316,3.231357 2,5.125 C 18.902977,-68 19.560828,-62 23.1875,-61.0625 27,-62.47312 27.5,-71 29.5,-70 c 0.817656,-0.761636 1.563694,-5.577727 2.5,-2 1,4 3.664333,8.257 4.5,12 v 1.5 z"
           id="path12739"
           inkscape:connector-curvature="0" />
        <path
           style="opacity:0.5249042;fill:url(#radialGradient3479);fill-opacity:1;stroke:none;stroke-width:1;stroke-linecap:round;stroke-linejoin:miter;stroke-miterlimit:4;stroke-dashoffset:0;stroke-opacity:1"
           d="m 5,-74 h 31 v 7 c -16.341516,-3.066748 -26.4168185,1.720898 -31,7 z"
           id="path12741"
           inkscape:connector-curvature="0" />
      </g>
    </g>
    <g
       style="display:inline;enable-background:new"
       id="g1451">
      <path
         id="path12755"
         d="m 349.22215,66.412853 1.96875,18.9375 c 0.12533,1.199248 1.24942,1.961379 2.375,1.84375 l 30.34375,-3.1875 1.75,-6.5 c 0.2023,-0.754994 -0.30458,-1.515667 -1.0625,-1.71875 l -34.84375,-9.3125 c -0.17895,-0.04795 -0.3548,-0.07819 -0.53125,-0.0625 z"
         style="opacity:0.2;fill:url(#linearGradient3489);fill-opacity:1;stroke:none;stroke-width:0.99999994;stroke-linecap:round;stroke-linejoin:round;stroke-miterlimit:4;stroke-dasharray:none;stroke-dashoffset:0;stroke-opacity:1"
         inkscape:connector-curvature="0" />
      <g
         transform="rotate(-5.9662429,1823.5161,-3367.1136)"
         id="g3546">
        <rect
           style="opacity:1;fill:url(#linearGradient3491);fill-opacity:1;stroke:#888a85;stroke-width:1.10000002;stroke-linecap:round;stroke-linejoin:round;stroke-miterlimit:4;stroke-dasharray:none;stroke-dashoffset:0;stroke-opacity:1"
           id="rect12758"
           width="38"
           height="21.999998"
           x="1.5"
           y="-107.5"
           rx="0.96564269"
           ry="0.86008656" />
        <rect
           style="opacity:1;fill:none;fill-opacity:1;stroke:#ffffff;stroke-width:0.99999994;stroke-linecap:round;stroke-linejoin:round;stroke-miterlimit:4;stroke-dasharray:none;stroke-dashoffset:0;stroke-opacity:1"
           id="rect12760"
           width="36"
           height="20"
           x="2.5"
           y="-106.5"
           rx="0"
           ry="0" />
        <g
           id="g12762">
          <rect
             style="opacity:1;fill:url(#linearGradient3494);fill-opacity:1;stroke:#f57900;stroke-width:0.99999988;stroke-linecap:round;stroke-linejoin:miter;stroke-miterlimit:4;stroke-dasharray:none;stroke-dashoffset:0;stroke-opacity:1"
             id="rect12764"
             width="32"
             height="16"
             x="4.5"
             y="-104.5"
             rx="0"
             ry="0" />
          <rect
             y="-98"
             x="13"
             height="8"
             width="8"
             id="rect12766"
             style="opacity:1;fill:url(#radialGradient3496);fill-opacity:1;stroke:none;stroke-width:1;stroke-linecap:round;stroke-linejoin:miter;stroke-miterlimit:4;stroke-dasharray:none;stroke-dashoffset:0;stroke-opacity:1" />
          <path
             id="path12768"
             d="m 4.5,-89 c 1.7654963,-1.895317 2.7341619,-2.121361 7.3125,-3.8125 2.517463,2.09711 5.631778,3.253296 8.5625,1.5625 3.653079,-2.406706 5.93787,0.191196 9.4375,-2.625 1.599342,0.895833 2.755113,1.854167 6.6875,2.875 v 2.5 h -32 z"
             style="fill:#000000;fill-rule:evenodd;stroke:#000000;stroke-width:1px;stroke-linecap:butt;stroke-linejoin:miter;stroke-opacity:1"
             inkscape:connector-curvature="0" />
          <path
             style="opacity:0.75478929;fill:url(#radialGradient3498);fill-opacity:1;stroke:none;stroke-width:1;stroke-linecap:round;stroke-linejoin:miter;stroke-miterlimit:4;stroke-dashoffset:0;stroke-opacity:1"
             d="m 5,-104 h 31 v 7 c -16.341516,-3.06675 -26.4168185,1.720898 -31,7 z"
             id="path12770"
             inkscape:connector-curvature="0" />
        </g>
      </g>
    </g>
  </g>
  <g
     style="display:inline;opacity:0.5;enable-background:new"
     id="g4275"
     transform="matrix(0.99996431,0,0,0.99925008,-243.71894,-360.65219)">
    <g
       transform="translate(241.72464,354.92299)"
       id="g6648">
      <rect
         transform="matrix(1,-1.0836171e-4,-3.2200483e-4,0.9999999,0,0)"
         ry="0.9760828"
         rx="0.9760828"
         y="13.501643"
         x="3.5068262"
         height="8.0105247"
         width="12.001775"
         id="rect6541-6"
         style="display:inline;fill:#ffffff;fill-opacity:1;stroke:#888a85;stroke-width:1;stroke-linecap:round;stroke-linejoin:round;stroke-miterlimit:4;stroke-dasharray:none;stroke-dashoffset:0;stroke-opacity:1" />
      <g
         id="g6556-1"
         transform="matrix(0.8041493,0,0,0.8111071,4.3111135,2.9712995)">
        <rect
           transform="matrix(0.9999999,5.006391e-4,4.9985661e-4,0.9999999,0,0)"
           ry="0"
           rx="0"
           y="15.445684"
           x="1.4707196"
           height="5.0458584"
           width="10.074242"
           id="rect3726-1"
           style="fill:url(#linearGradient4295-5);fill-opacity:1;stroke:#729fcf;stroke-width:1.23820519;stroke-linecap:round;stroke-linejoin:miter;stroke-miterlimit:4;stroke-dasharray:none;stroke-dashoffset:0;stroke-opacity:1" />
        <path
           sodipodi:nodetypes="ccccc"
           id="path3728-5"
           d="m 2.1075632,16.062861 8.8413458,0.0044 10e-4,1.978223 C 6.2887938,17.176481 3.4159537,18.528063 2.1095624,20.019307 Z"
           style="opacity:0.5249042;fill:url(#radialGradient4297-09);fill-opacity:1;stroke:none;stroke-width:1;stroke-linecap:round;stroke-linejoin:miter;stroke-miterlimit:4;stroke-dashoffset:0;stroke-opacity:1"
           inkscape:connector-curvature="0" />
        <path
           sodipodi:nodetypes="ccccc"
           id="path3730-9"
           d="m 1.4801838,18.935157 c 2.55318,-0.717056 6.286049,-0.842802 10.0737672,-0.941055 l 0.0013,2.503218 -10.0742398,-0.005 z"
           style="fill:url(#linearGradient2252);fill-opacity:1;stroke:url(#linearGradient2254);stroke-width:1.23820508;stroke-linecap:round;stroke-linejoin:miter;stroke-miterlimit:4;stroke-dashoffset:0;stroke-opacity:1"
           inkscape:connector-curvature="0" />
      </g>
    </g>
    <rect
       style="display:inline;fill:#ffffff;fill-opacity:1;stroke:#888a85;stroke-width:1.00000012;stroke-linecap:round;stroke-linejoin:round;stroke-miterlimit:4;stroke-dasharray:none;stroke-dashoffset:0;stroke-opacity:1"
       id="rect6569-8"
       width="11.994837"
       height="8.0105247"
       x="244.34622"
       y="361.45078"
       rx="0.96943378"
       ry="0.96943372"
       transform="matrix(1,-1.0842438e-4,-3.2181864e-4,0.9999999,0,0)" />
    <g
       transform="matrix(0.2541308,-0.00152836,0.00128078,0.2530206,245.07353,382.32881)"
       id="g3618-4">
      <rect
         transform="matrix(1,-8.1768806e-5,-6.7312468e-5,1,0,0)"
         style="opacity:1;fill:url(#linearGradient2256);fill-opacity:1;stroke:#729fcf;stroke-width:3.94354439;stroke-linecap:round;stroke-linejoin:miter;stroke-miterlimit:4;stroke-dasharray:none;stroke-dashoffset:0;stroke-opacity:1"
         id="rect3620-8"
         width="31.572609"
         height="15.999993"
         x="4.9234552"
         y="-74.497009"
         rx="0"
         ry="0" />
      <path
         style="fill:url(#linearGradient2258);fill-opacity:1;fill-rule:evenodd;stroke:url(#linearGradient2260);stroke-width:3.9435451px;stroke-linecap:butt;stroke-linejoin:miter;stroke-opacity:1"
         d="m 5,-58.5 c 1.4374991,-7.5 3.9476793,-4.798522 6.1875,-11.1875 1.313216,0.771838 1.799196,0.267024 2.8125,1.125 1.008661,1.252341 1.472316,3.231357 2,5.125 C 18.902977,-68 19.560828,-62 23.1875,-61.0625 27,-62.47312 27.5,-71 29.5,-70 c 0.817656,-0.761636 1.563694,-5.577727 2.5,-2 1,4 3.664333,8.257 4.5,12 v 1.5 z"
         id="path3622-1"
         sodipodi:nodetypes="cccccccccc"
         inkscape:connector-curvature="0" />
      <path
         style="opacity:0.5249042;fill:url(#radialGradient4309-6);fill-opacity:1;stroke:none;stroke-width:1;stroke-linecap:round;stroke-linejoin:miter;stroke-miterlimit:4;stroke-dashoffset:0;stroke-opacity:1"
         d="m 6.8610913,-72.223191 27.9045067,0.0049 9.26e-4,6.117223 c -14.710145,-2.68259 -23.778749,1.499684 -27.9035801,6.112305 z"
         id="path3624-0"
         sodipodi:nodetypes="ccccc"
         inkscape:connector-curvature="0" />
    </g>
    <g
       transform="translate(243.72464,360.92299)"
       id="g6655-3">
      <rect
         style="fill:#ffffff;fill-opacity:1;stroke:#888a85;stroke-width:1.00000012;stroke-linecap:round;stroke-linejoin:round;stroke-miterlimit:4;stroke-dasharray:none;stroke-dashoffset:0;stroke-opacity:1"
         id="rect3548-0"
         width="11.964852"
         height="8.0105247"
         x="3.5408463"
         y="4.5016522"
         rx="1.0319406"
         ry="1.0319406"
         transform="matrix(1,-1.086961e-4,-3.2101412e-4,0.9999999,0,0)" />
      <g
         id="g6623-4"
         transform="matrix(0.8918502,0,0,1,1.5115706,0)">
        <rect
           transform="matrix(1,-8.4382155e-5,-4.1347225e-4,0.9999999,0,0)"
           style="fill:url(#linearGradient2262);fill-opacity:1;stroke:#f57900;stroke-width:1.05889797;stroke-linecap:round;stroke-linejoin:miter;stroke-miterlimit:4;stroke-dasharray:none;stroke-dashoffset:0;stroke-opacity:1"
           id="rect3554-4"
           width="9.0028801"
           height="4.0416207"
           x="4.4764481"
           y="6.5117211"
           rx="0"
           ry="0" />
        <rect
           transform="matrix(1,-8.6658265e-5,-4.0261224e-4,0.9999999,0,0)"
           y="7.6642799"
           x="6.4072056"
           height="2.9245806"
           width="3.1717584"
           id="rect3556-4"
           style="fill:url(#radialGradient4313-8);fill-opacity:1;stroke:none;stroke-width:1;stroke-linecap:round;stroke-linejoin:miter;stroke-miterlimit:4;stroke-dasharray:none;stroke-dashoffset:0;stroke-opacity:1" />
        <path
           sodipodi:nodetypes="cccccccc"
           id="path3558-4"
           d="M 4.472138,10.423257 C 4.969041,9.9315407 5.241589,9.8728775 6.529835,9.4340592 c 0.708044,0.5439601 1.584104,0.8438168 2.40881,0.4051274 1.028009,-0.6244248 1.670541,0.049454 2.655421,-0.6811946 0.449865,0.2323536 0.774929,0.4809317 1.881161,0.7456551 l -2.61e-4,0.6485369 -9.00288,7.8e-4 z"
           style="fill:#000000;fill-rule:evenodd;stroke:#000000;stroke-width:1.05889809px;stroke-linecap:butt;stroke-linejoin:miter;stroke-opacity:1"
           inkscape:connector-curvature="0" />
        <path
           style="opacity:0.75478929;fill:url(#radialGradient4315-5);fill-opacity:1;stroke:none;stroke-width:1;stroke-linecap:round;stroke-linejoin:miter;stroke-miterlimit:4;stroke-dashoffset:0;stroke-opacity:1"
           d="M 5.001341,7.0006583 13,7 12.999329,8.5815861 C 8.783164,7.8890288 6.183063,8.9709681 5,10.16383 Z"
           id="path3560-7"
           sodipodi:nodetypes="ccccc"
           inkscape:connector-curvature="0" />
      </g>
    </g>
  </g>
  <g
     id="g4351"
     transform="translate(-0.00711143,-0.007286)">
    <path
       style="color:#000000;display:inline;overflow:visible;visibility:visible;fill:url(#radialGradient3259);fill-opacity:1;fill-rule:nonzero;stroke:none;stroke-width:0.98542738;stroke-linecap:round;stroke-linejoin:round;stroke-miterlimit:4;stroke-dasharray:none;stroke-dashoffset:0;stroke-opacity:1;marker:none;enable-background:accumulate"
       id="path2262"
       d="M 10.5,10.5 V 8.4927137 h 3 V 10.5 h 2.007286 v 3 H 13.5 v 2.007286 h -3 V 13.5 H 8.4927137 v -3 z"
       inkscape:connector-curvature="0" />
    <path
       style="color:#000000;clip-rule:nonzero;display:inline;overflow:visible;visibility:visible;opacity:0.5;isolation:auto;mix-blend-mode:normal;color-interpolation:sRGB;color-interpolation-filters:linearRGB;solid-color:#000000;solid-opacity:1;fill:none;fill-opacity:1;fill-rule:nonzero;stroke:#0f5a00;stroke-width:1;stroke-linecap:round;stroke-linejoin:round;stroke-miterlimit:4;stroke-dasharray:none;stroke-dashoffset:0;stroke-opacity:1;marker:none;color-rendering:auto;image-rendering:auto;shape-rendering:auto;text-rendering:auto;enable-background:accumulate"
       id="path2262-5"
       d="M 10.5,10.5 V 8.4927137 h 3 V 10.5 h 2.007286 v 3 H 13.5 v 2.007286 h -3 V 13.5 H 8.4927137 v -3 z"
       inkscape:connector-curvature="0" />
    <rect
       style="color:#000000;clip-rule:nonzero;display:inline;overflow:visible;visibility:visible;opacity:0.5;isolation:auto;mix-blend-mode:normal;color-interpolation:sRGB;color-interpolation-filters:linearRGB;solid-color:#000000;solid-opacity:1;fill:#ffffff;fill-opacity:1;fill-rule:nonzero;stroke:none;stroke-width:1;stroke-linecap:round;stroke-linejoin:round;stroke-miterlimit:4;stroke-dasharray:none;stroke-dashoffset:0;stroke-opacity:1;marker:none;color-rendering:auto;image-rendering:auto;shape-rendering:auto;text-rendering:auto;enable-background:accumulate"
       id="rect4304"
       width="2"
       height="1"
       x="11"
       y="9" />
    <rect
       style="color:#000000;clip-rule:nonzero;display:inline;overflow:visible;visibility:visible;opacity:0.2;isolation:auto;mix-blend-mode:normal;color-interpolation:sRGB;color-interpolation-filters:linearRGB;solid-color:#000000;solid-opacity:1;fill:#ffffff;fill-opacity:1;fill-rule:nonzero;stroke:none;stroke-width:1;stroke-linecap:round;stroke-linejoin:round;stroke-miterlimit:4;stroke-dasharray:none;stroke-dashoffset:0;stroke-opacity:1;marker:none;color-rendering:auto;image-rendering:auto;shape-rendering:auto;text-rendering:auto;enable-background:accumulate"
       id="rect4304-6"
       width="2"
       height="1"
       x="11"
       y="14" />
    <rect
       style="color:#000000;clip-rule:nonzero;display:inline;overflow:visible;visibility:visible;opacity:0.4;isolation:auto;mix-blend-mode:normal;color-interpolation:sRGB;color-interpolation-filters:linearRGB;solid-color:#000000;solid-opacity:1;fill:#ffffff;fill-opacity:1;fill-rule:nonzero;stroke:none;stroke-width:1;stroke-linecap:round;stroke-linejoin:round;stroke-miterlimit:4;stroke-dasharray:none;stroke-dashoffset:0;stroke-opacity:1;marker:none;color-rendering:auto;image-rendering:auto;shape-rendering:auto;text-rendering:auto;enable-background:accumulate"
       id="rect4304-6-2"
       width="2"
       height="1"
       x="9"
       y="11" />
    <rect
       style="color:#000000;clip-rule:nonzero;display:inline;overflow:visible;visibility:visible;opacity:0.4;isolation:auto;mix-blend-mode:normal;color-interpolation:sRGB;color-interpolation-filters:linearRGB;solid-color:#000000;solid-opacity:1;fill:#ffffff;fill-opacity:1;fill-rule:nonzero;stroke:none;stroke-width:1;stroke-linecap:round;stroke-linejoin:round;stroke-miterlimit:4;stroke-dasharray:none;stroke-dashoffset:0;stroke-opacity:1;marker:none;color-rendering:auto;image-rendering:auto;shape-rendering:auto;text-rendering:auto;enable-background:accumulate"
       id="rect4304-6-2-4"
       width="2"
       height="1"
       x="13"
       y="11" />
  </g>
</svg>
